<?xml version="1.0" encoding="UTF-8" standalone="no"?>
<svg
   xmlns:dc="http://purl.org/dc/elements/1.1/"
   xmlns:cc="http://creativecommons.org/ns#"
   xmlns:rdf="http://www.w3.org/1999/02/22-rdf-syntax-ns#"
   xmlns:svg="http://www.w3.org/2000/svg"
   xmlns="http://www.w3.org/2000/svg"
   xmlns:xlink="http://www.w3.org/1999/xlink"
   xmlns:sodipodi="http://sodipodi.sourceforge.net/DTD/sodipodi-0.dtd"
   xmlns:inkscape="http://www.inkscape.org/namespaces/inkscape"
   width="750"
   height="625"
   viewBox="0 0 749.99999 625.00003"
   version="1.1"
   id="svg40"
   sodipodi:docname="Culture Art.svg"
   inkscape:version="1.0.2 (1.0.2+r75+1)"
   inkscape:export-filename="/home/njan/Dropbox/New Ub 2021/Existing Pics/Inksplash/Culture Art.png"
   inkscape:export-xdpi="96"
   inkscape:export-ydpi="96">
  <title
     id="title1109">Culture Art</title>
  <defs
     id="defs34">
    <inkscape:path-effect
       effect="spiro"
       id="path-effect3053"
       is_visible="true"
       lpeversion="1" />
    <inkscape:path-effect
       effect="spiro"
       id="path-effect3049"
       is_visible="true"
       lpeversion="1" />
    <inkscape:path-effect
       effect="spiro"
       id="path-effect2320"
       is_visible="true"
       lpeversion="1" />
    <inkscape:path-effect
       effect="spiro"
       id="path-effect2316"
       is_visible="true"
       lpeversion="1" />
    <linearGradient
       id="WhiteTransparent"
       gradientUnits="userSpaceOnUse">
      <stop
         style="stop-color:white;stop-opacity:1"
         offset="0"
         id="stop7" />
      <stop
         style="stop-color:white;stop-opacity:0"
         offset="1"
         id="stop9" />
    </linearGradient>
    <linearGradient
       id="IcecapTip"
       xlink:href="#WhiteTransparent"
       x1="60"
       y1="20"
       x2="90"
       y2="50"
       gradientUnits="userSpaceOnUse" />
    <linearGradient
       gradientUnits="userSpaceOnUse"
       id="linearGradient5785">
      <stop
         id="stop5787"
         offset="0"
         style="stop-color:#c0cdf9;stop-opacity:1" />
      <stop
         id="stop5789"
         offset="1"
         style="stop-color:#07092d;stop-opacity:0.28804347" />
    </linearGradient>
    <linearGradient
       gradientUnits="userSpaceOnUse"
       y2="60"
       x2="58"
       y1="35"
       x1="33"
       xlink:href="#WhiteTransparent"
       id="shinySpecular-4"
       gradientTransform="matrix(1.009184,0,0,1.009184,-0.3890738,-0.3831933)" />
  </defs>
  <sodipodi:namedview
     id="base"
     pagecolor="#d6d6d6"
     bordercolor="#666666"
     borderopacity="1.0"
     inkscape:pageopacity="0"
     inkscape:pageshadow="2"
     inkscape:zoom="0.8128"
     inkscape:cx="375"
     inkscape:cy="312.5"
     inkscape:document-units="px"
     inkscape:current-layer="layer2"
     inkscape:document-rotation="0"
     showgrid="false"
     units="px"
     inkscape:pagecheckerboard="true"
     showguides="true"
     inkscape:guide-bbox="true"
     inkscape:window-width="1316"
     inkscape:window-height="699"
     inkscape:window-x="50"
     inkscape:window-y="30"
     inkscape:window-maximized="1"
     inkscape:snap-global="true"
     inkscape:snap-bbox="true"
     inkscape:bbox-paths="true"
     inkscape:bbox-nodes="true"
     inkscape:snap-page="true"
     inkscape:snap-nodes="true">
    <sodipodi:guide
       position="0,0"
       orientation="1,0"
       inkscape:label="Page border"
       inkscape:locked="true"
       inkscape:color="#cc0000"
       id="guide2054" />
    <sodipodi:guide
       position="0,625"
       orientation="0,1"
       inkscape:label="Page border"
       inkscape:locked="true"
       inkscape:color="#cc0000"
       id="guide2058" />
    <inkscape:grid
       type="xygrid"
       id="grid2239" />
  </sodipodi:namedview>
  <metadata
     id="metadata37">
    <rdf:RDF>
      <cc:Work
         rdf:about="">
        <dc:format>image/svg+xml</dc:format>
        <dc:type
           rdf:resource="http://purl.org/dc/dcmitype/StillImage" />
        <dc:title>Culture Art</dc:title>
        <cc:license
           rdf:resource="http://creativecommons.org/licenses/by-sa/4.0/" />
        <dc:date>5 Feb 2021</dc:date>
        <dc:creator>
          <cc:Agent>
            <dc:title>Dilip</dc:title>
          </cc:Agent>
        </dc:creator>
        <dc:subject>
          <rdf:Bag />
        </dc:subject>
        <dc:description>Based on an Ancient Art form from South India</dc:description>
        <dc:contributor>
          <cc:Agent>
            <dc:title>Font :  Gayathri is licensed under the SIL Open Font License, Version 1.1.  

https://smc.org.in/fonts/gayathri</dc:title>
          </cc:Agent>
        </dc:contributor>
        <dc:language>English</dc:language>
      </cc:Work>
      <cc:License
         rdf:about="http://creativecommons.org/licenses/by-sa/4.0/">
        <cc:permits
           rdf:resource="http://creativecommons.org/ns#Reproduction" />
        <cc:permits
           rdf:resource="http://creativecommons.org/ns#Distribution" />
        <cc:requires
           rdf:resource="http://creativecommons.org/ns#Notice" />
        <cc:requires
           rdf:resource="http://creativecommons.org/ns#Attribution" />
        <cc:permits
           rdf:resource="http://creativecommons.org/ns#DerivativeWorks" />
        <cc:requires
           rdf:resource="http://creativecommons.org/ns#ShareAlike" />
      </cc:License>
    </rdf:RDF>
  </metadata>
  <g
     inkscape:groupmode="layer"
     id="layer2"
     inkscape:label="Layer 1"
     transform="translate(0,-2.3053493)"
     style="display:inline">
    <rect
       style="fill:#eef4d7;stroke:none;stroke-width:3;stroke-linecap:round;stroke-linejoin:round"
       id="rect214"
       width="750"
       height="625"
       x="0"
       y="2.3053601" />
    <path
       id="rect2312"
       style="fill:#000000;stroke:none;stroke-width:11.1816;stroke-linecap:round;stroke-linejoin:round;stroke-opacity:1"
       d="M 180,0 V 625 H 750 V 480 H 500 494.48242 415.86133 V 460 H 750 V 300 H 592.75781 V 0 Z"
       transform="translate(0,2.3053493)" />
    <path
       style="fill:#ff6600;stroke:none;stroke-width:1.08212px;stroke-linecap:butt;stroke-linejoin:miter;stroke-opacity:1"
       d="M 710.15703,82.199968 V 221.84058 l -117.39744,59.846 -117.39746,-59.846 V 82.199968 L 592.75959,22.353989 Z"
       id="path1078"
       sodipodi:nodetypes="ccccccc"
       inkscape:export-xdpi="96"
       inkscape:export-ydpi="96" />
    <circle
       style="fill:#ffffff;fill-opacity:1;stroke-width:2.38467;stroke-linecap:round;stroke-linejoin:round"
       id="circle3031"
       cx="2061.2861"
       cy="359.21619"
       r="9.374999"
       inkscape:export-xdpi="96"
       inkscape:export-ydpi="96" />
    <g
       id="g2174"
       transform="matrix(0.46892518,0,0,0.47715191,500.30531,56.828712)"
       inkscape:export-xdpi="96"
       inkscape:export-ydpi="96">
      <path
         d="M 163.15,27.83 28.81,165.3 C -16.58,221.51 59.7,214.97 92.4,231.16 104.13,243.15 47.44,252 59.17,264 c 11.73,11.99 70.93,23.1 82.68,35.09 11.73,11.99 -24.01,24.71 -12.28,36.7 11.73,11.99 38.86,0.63 43.94,28.31 3.62,19.78 48.89,8.5 71.03,-7.7 11.73,-12 -22.44,-10.87 -10.71,-22.86 29.17,-29.83 56.33,-10.84 66.31,-40.73 4.93,-14.77 -42.94,-22.77 -31.19,-34.76 33.75,-19.71 150.4,-32.54 95.05,-87.89 L 224.75,27.83 c -17.03,-16.35 -45.45,-16.53 -61.6,0 z m 154.31,264.98 c 0,6.82 50.25,11.29 50.25,-1.61 -7.16,-20.72 -44.31,-19.32 -50.25,1.61 z M 91.1,329.05 c 11.9,10.29 30.28,-2.56 35.79,-16.92 -11.53,-15.32 -54.69,0.55 -35.79,16.92 z m 220.06,-22.23 c -15.34,13.76 1.72,27.72 16.84,18.83 3.37,-3.42 -0.09,-15.41 -16.84,-18.83 z"
         id="path2313-6"
         inkscape:connector-curvature="0"
         style="fill:#000000;fill-opacity:1" />
      <path
         d="m 131,238.6 c 3.59,2.23 57.89,13.26 71.16,15.46 4.6,0.97 1.34,5.71 -5,8.91 -14.3,3.8 -83.66,-24.37 -66.16,-24.37 z"
         id="path2315"
         style="fill:#ffffff"
         inkscape:connector-curvature="0" />
      <path
         d="m 216.63,37.47 53.15,53.98 c 5.04,5.15 4.97,15.13 2.15,18 L 245.54,88.34 240.35,119.6 218.3,107.96 182.99,130.27 171.3,83.24 152.33,116.06 h -29 c -11.82,0 -13.21,-15 -2.47,-25.74 18.76,-20.25 40.29,-40.89 51.99,-52.85 11.76,-12.02 32.25,-11.68 43.78,0 z"
         id="path2317"
         style="fill:#ffffff"
         inkscape:connector-curvature="0" />
    </g>
    <path
       id="rect1098"
       style="fill:#ff2a2a;fill-opacity:1;stroke:none;stroke-width:7.9295;stroke-linecap:round;stroke-linejoin:round"
       d="M 151.33398,2.3053601 V 627.30536 h 153.5791 l 26.4209,-67.93945 V 82.879578 L 300,2.3053601 Z"
       inkscape:export-xdpi="96"
       inkscape:export-ydpi="96" />
    <g
       id="g1348"
       transform="matrix(0.77700956,0,0,0.77700956,-50.530479,41.990527)"
       inkscape:export-xdpi="96"
       inkscape:export-ydpi="96"
       style="stroke:#ffffff;stroke-width:7.72191;stroke-miterlimit:4;stroke-dasharray:none;stroke-opacity:1">
      <circle
         style="fill:#ff2a2a;fill-opacity:1;stroke:#ffffff;stroke-width:7.72191;stroke-miterlimit:4;stroke-dasharray:none;stroke-opacity:1"
         id="circle1296"
         cx="265.71429"
         cy="192.06508"
         r="200" />
      <circle
         style="fill:#ff7f2a;stroke:#ffffff;stroke-width:7.72191;stroke-miterlimit:4;stroke-dasharray:none;stroke-opacity:1"
         id="circle1298"
         cx="265.71429"
         cy="192.06508"
         r="158.8745" />
      <circle
         style="fill:#44aa00;fill-opacity:1;stroke:#ffffff;stroke-width:7.72191;stroke-miterlimit:4;stroke-dasharray:none;stroke-opacity:1"
         id="circle1300"
         cx="265.71429"
         cy="192.06508"
         r="119.84012" />
      <rect
         style="fill:#ffd42a;fill-opacity:1;stroke:#ffffff;stroke-width:7.72191;stroke-miterlimit:4;stroke-dasharray:none;stroke-opacity:1"
         id="rect1302"
         width="240"
         height="99.999985"
         x="145.71428"
         y="352.06512" />
      <rect
         style="fill:#ffcc00;fill-opacity:1;stroke:#ffffff;stroke-width:7.72191;stroke-miterlimit:4;stroke-dasharray:none;stroke-opacity:1"
         id="rect1304"
         width="160"
         height="160"
         x="185.71429"
         y="232.06506"
         ry="20.00004" />
      <circle
         style="fill:#ffcc00;fill-opacity:1;stroke:#ffffff;stroke-width:7.72191;stroke-miterlimit:4;stroke-dasharray:none;stroke-opacity:1"
         id="circle1306"
         cx="265.21426"
         cy="161.56509"
         r="30" />
      <rect
         style="fill:#ffd42a;fill-opacity:1;stroke:#ffffff;stroke-width:7.72191;stroke-miterlimit:4;stroke-dasharray:none;stroke-opacity:1"
         id="rect1308"
         width="79.999992"
         height="60"
         x="225.71428"
         y="182.06509"
         ry="7.5000157" />
      <rect
         style="fill:#ff6600;fill-opacity:1;stroke:#ffffff;stroke-width:7.72191;stroke-miterlimit:4;stroke-dasharray:none;stroke-opacity:1"
         id="rect1310"
         width="119.99998"
         height="20"
         x="205.71428"
         y="332.06509" />
      <path
         style="fill:#ffffff;stroke:#ffffff;stroke-width:7.72191;stroke-linecap:butt;stroke-linejoin:miter;stroke-miterlimit:4;stroke-dasharray:none;stroke-opacity:1"
         d="m 170.81386,533.54378 c 0,0 -29.80757,24.63269 -43.04679,38.65568 -5.86017,6.20708 -13.34842,11.88748 -15.9875,20.00564 -2.06699,6.35834 -1.52402,13.81146 0.91447,20.03679 3.13287,7.99805 10.1219,14.07629 16.62192,19.69172 6.65853,5.7524 14.39122,10.34116 22.43119,13.91675 5.84406,2.59903 12.96154,2.01849 18.4319,5.33257 11.98119,7.25847 29.04447,30.37308 29.04447,30.37308 0,0 11.95796,16.34135 19.91488,22.37163 9.29735,7.04617 20.07691,12.77499 31.45804,15.33604 7.72764,1.73892 20.14673,2.03463 28.02525,1.2167 9.96649,-1.03468 16.57737,-2.26065 25.22073,-7.32952 4.74592,-2.78321 14.86893,-11.66899 18.40411,-15.88475 5.47242,-6.526 8.38383,-11.52178 12.63942,-17.23563 4.05498,-5.44452 7.68261,-11.2532 12.28566,-16.24297 5.76147,-6.24552 11.51883,-12.98567 19.02697,-16.96426 6.05341,-3.20773 13.77933,-1.99941 19.93146,-5.01339 9.45868,-4.63389 18.82597,-10.8649 24.87182,-19.48974 3.7276,-5.31772 5.79825,-12.02521 6.06622,-18.51379 0.29782,-7.21111 -1.35682,-14.8441 -5.02232,-21.06127 -12.55339,-21.29223 -54.78652,-49.96959 -54.78652,-49.96959 z"
         id="path1312"
         sodipodi:nodetypes="csssssscsssssssssssscc" />
      <path
         id="path1314"
         style="fill:#268538;fill-opacity:1;stroke:#ffffff;stroke-width:7.72191;stroke-linecap:butt;stroke-linejoin:miter;stroke-miterlimit:4;stroke-dasharray:none;stroke-opacity:1"
         d="m 313.26997,395.63509 c -7.08639,-0.0767 -18.88143,3.51205 -18.88143,3.51205 l -30.227,6.85137 -1.08041,-0.63394 5.99308,2.19202 -29.39659,-6.66395 c 0,0 -17.78811,-4.56616 -24.87452,-4.48963 -0.47244,0.004 -0.92263,0.0227 -1.34826,0.0658 -8.79569,0.82337 -17.28881,4.64802 -24.84589,9.22344 -7.06388,4.27684 -13.60833,9.86234 -18.40524,16.5837 -4.49017,6.2917 -7.57513,13.75548 -9.08059,21.33698 -1.21445,6.11592 -0.34851,12.49402 0.19347,18.70587 0.89105,10.20843 5.01501,30.32806 5.01501,30.32806 l 3.71737,20.92615 0.76489,19.9708 c 0,0 -14.12856,20.73686 -19.48266,32.02767 -3.84124,8.10036 -9.00482,16.39888 -8.94665,25.36373 0.0461,7.06515 2.70815,14.53508 7.30972,19.89642 8.09976,9.43706 32.66454,18.02714 32.66454,18.02714 0,0 12.04821,8.5299 21.6464,16.76541 6.6776,5.72954 19.31596,20.60807 26.53344,25.64058 5.32368,3.71195 10.12789,8.64556 16.30103,10.64897 5.75165,1.86686 12.19419,2.52152 18.15227,1.35731 l 1.37613,0.3781 c 5.40718,0.70265 9.72264,-0.83731 14.86535,-2.50356 6.17311,-2.00341 10.97735,-6.93698 16.30104,-10.64897 7.21746,-5.03251 19.85578,-19.91108 26.53338,-25.64058 9.59822,-8.23551 21.64645,-16.76541 21.64645,-16.76541 0,0 24.56477,-8.59008 32.66453,-18.02714 4.60157,-5.36134 7.26365,-12.83127 7.30972,-19.89646 0.0582,-8.96481 -5.10539,-17.26337 -8.94663,-25.36369 -5.35412,-11.29084 -19.48268,-32.02768 -19.48268,-32.02768 l 0.76491,-19.97083 3.71731,-20.92607 c 0,0 4.124,-20.11971 5.01502,-30.32814 0.54198,-6.21185 1.40791,-12.58987 0.19351,-18.70583 -1.50546,-7.58147 -4.59042,-15.04543 -9.08058,-21.33694 -4.79694,-6.7214 -11.34138,-12.30694 -18.40524,-16.58378 -7.55709,-4.57534 -16.05018,-8.40007 -24.84593,-9.22341 -0.42562,-0.0404 -0.87576,-0.0605 -1.3482,-0.0658 z"
         sodipodi:nodetypes="ccccccccsssccccscscssccccsscscsccccsssccc" />
      <path
         style="fill:#ffcc00;stroke:#ffffff;stroke-width:7.72191;stroke-linecap:butt;stroke-linejoin:miter;stroke-miterlimit:4;stroke-dasharray:none;stroke-opacity:1"
         d="m 245.71428,400.16462 v 50.00002 l 20,19.99997 20.00002,-19.99997 v -50.00002 l -20.00002,9.99999 z"
         id="path1316"
         sodipodi:nodetypes="ccccccc" />
      <path
         style="fill:#ff5555;stroke:#ffffff;stroke-width:7.72191;stroke-linecap:butt;stroke-linejoin:miter;stroke-miterlimit:4;stroke-dasharray:none;stroke-opacity:1"
         d="m 253.71427,414.16464 v 30.00004 l 12.00002,12 12.00002,-12 v -30.00004 l -12.00002,6 z"
         id="path1318"
         sodipodi:nodetypes="ccccccc" />
      <circle
         style="fill:#ff6600;fill-opacity:1;stroke:#ffffff;stroke-width:7.72191;stroke-miterlimit:4;stroke-dasharray:none;stroke-opacity:1"
         id="circle1320"
         cx="185.71429"
         cy="382.06512"
         r="10" />
      <circle
         style="fill:#ff6600;fill-opacity:1;stroke:#ffffff;stroke-width:7.72191;stroke-miterlimit:4;stroke-dasharray:none;stroke-opacity:1"
         id="circle1322"
         cx="345.71423"
         cy="382.06512"
         r="10" />
      <circle
         style="fill:#ff6600;fill-opacity:1;stroke:#ffffff;stroke-width:7.72191;stroke-miterlimit:4;stroke-dasharray:none;stroke-opacity:1"
         id="circle1324"
         cx="265.71429"
         cy="372.06506"
         r="10" />
      <circle
         style="fill:#ff2a2a;fill-opacity:1;stroke:#ffffff;stroke-width:7.72191;stroke-miterlimit:4;stroke-dasharray:none;stroke-opacity:1"
         id="circle1326"
         cx="195.71428"
         cy="582.06506"
         r="10" />
      <circle
         style="fill:#ff2a2a;fill-opacity:1;stroke:#ffffff;stroke-width:7.72191;stroke-miterlimit:4;stroke-dasharray:none;stroke-opacity:1"
         id="circle1328"
         cx="335.71432"
         cy="582.06506"
         r="10" />
      <path
         style="fill:#ff2a2a;fill-opacity:1;stroke:#ffffff;stroke-width:7.72191;stroke-linecap:butt;stroke-linejoin:miter;stroke-miterlimit:4;stroke-dasharray:none;stroke-opacity:1"
         d="m 205.71428,582.06509 c 0,0 26.35929,-8.32075 40,-9.99999 13.23344,-1.62913 26.76658,-1.62913 40.00002,0 13.64069,1.67924 39.99999,9.99999 39.99999,9.99999 0,0 -26.3593,8.32074 -39.99999,9.99998 -13.23344,1.62913 -26.76657,1.62913 -40.00002,4e-5 -13.64071,-1.67924 -40,-10.00002 -40,-10.00002 z"
         id="path1330"
         sodipodi:nodetypes="csscssc" />
      <circle
         style="fill:#ff9955;fill-opacity:1;stroke:#ffffff;stroke-width:7.72191;stroke-miterlimit:4;stroke-dasharray:none;stroke-opacity:1"
         id="circle1332"
         cx="389.82022"
         cy="518.32397"
         r="33.856647" />
      <circle
         style="fill:#ff9955;fill-opacity:1;stroke:#ffffff;stroke-width:7.72191;stroke-miterlimit:4;stroke-dasharray:none;stroke-opacity:1"
         id="circle1334"
         cx="141.53835"
         cy="517.41382"
         r="33.856647" />
      <circle
         style="fill:#abc837;fill-opacity:1;stroke:#ffffff;stroke-width:7.72191;stroke-miterlimit:4;stroke-dasharray:none;stroke-opacity:1"
         id="circle1336"
         cx="145.12596"
         cy="466.85016"
         r="18.451637" />
      <circle
         style="fill:#abc837;fill-opacity:1;stroke:#ffffff;stroke-width:7.72191;stroke-miterlimit:4;stroke-dasharray:none;stroke-opacity:1"
         id="circle1338"
         cx="387.14633"
         cy="466.85016"
         r="18.451637" />
      <ellipse
         style="fill:#2a2aff;fill-opacity:1;stroke:#ffffff;stroke-width:7.72191;stroke-miterlimit:4;stroke-dasharray:none;stroke-opacity:1"
         id="ellipse1340"
         cx="145.71428"
         cy="352.06506"
         rx="40.000004"
         ry="39.999969" />
      <ellipse
         style="fill:#2a2aff;fill-opacity:1;stroke:#ffffff;stroke-width:7.72191;stroke-miterlimit:4;stroke-dasharray:none;stroke-opacity:1"
         id="ellipse1342"
         cx="385.71429"
         cy="352.06506"
         rx="40.000004"
         ry="39.999969" />
      <path
         style="fill:none;stroke:#ffffff;stroke-width:7.72191;stroke-linecap:round;stroke-linejoin:round;stroke-miterlimit:4;stroke-dasharray:none;stroke-opacity:1"
         d="m 177.35746,474.34779 15.07714,12.04815 40.6166,-20.78517 8.6779,8.57658"
         id="path1344" />
      <path
         style="fill:none;stroke:#ffffff;stroke-width:7.72191;stroke-linecap:round;stroke-linejoin:round;stroke-miterlimit:4;stroke-dasharray:none;stroke-opacity:1"
         d="m 354.07114,474.34776 -15.07714,12.04815 -40.61662,-20.78517 -8.67787,8.57657"
         id="path1346" />
    </g>
    <g
       id="g2039"
       transform="matrix(0.77700956,0,0,0.77700956,-50.530479,41.990527)"
       inkscape:export-xdpi="96"
       inkscape:export-ydpi="96">
      <circle
         style="fill:#ff2a2a;fill-opacity:1;stroke-width:0.999999"
         id="path40"
         cx="265.71429"
         cy="192.06508"
         r="200" />
      <circle
         style="fill:#ff7f2a;stroke-width:0.79437"
         id="circle42"
         cx="265.71429"
         cy="192.06508"
         r="158.8745" />
      <circle
         style="fill:#44aa00;fill-opacity:1;stroke-width:0.599199"
         id="circle44"
         cx="265.71429"
         cy="192.06508"
         r="119.84012" />
      <rect
         style="fill:#ffd42a;fill-opacity:1;stroke:none;stroke-width:0.447213;stroke-miterlimit:4;stroke-dasharray:none;stroke-opacity:1"
         id="rect1393"
         width="240"
         height="99.999985"
         x="145.71428"
         y="352.06512" />
      <rect
         style="fill:#ffcc00;fill-opacity:1;stroke:none;stroke-width:0.999999"
         id="rect46"
         width="160"
         height="160"
         x="185.71429"
         y="232.06506"
         ry="20.00004" />
      <circle
         style="fill:#ffcc00;fill-opacity:1;stroke:#ff9955;stroke-width:0.999999;stroke-miterlimit:4;stroke-dasharray:none;stroke-opacity:1"
         id="path1270"
         cx="265.21426"
         cy="161.56509"
         r="30" />
      <rect
         style="fill:#ffd42a;fill-opacity:1;stroke-width:0.433009"
         id="rect48"
         width="79.999992"
         height="60"
         x="225.71428"
         y="182.06509"
         ry="7.5000157" />
      <rect
         style="fill:#ff6600;fill-opacity:1;stroke:none;stroke-width:8.76359;stroke-miterlimit:4;stroke-dasharray:none;stroke-opacity:1"
         id="rect1051"
         width="119.99998"
         height="20"
         x="205.71428"
         y="332.06509" />
      <path
         style="fill:#ffffff;stroke:#000000;stroke-width:0.399999;stroke-linecap:butt;stroke-linejoin:miter;stroke-miterlimit:4;stroke-dasharray:none;stroke-opacity:1"
         d="m 170.81386,533.54378 c 0,0 -29.80757,24.63269 -43.04679,38.65568 -5.86017,6.20708 -13.34842,11.88748 -15.9875,20.00564 -2.06699,6.35834 -1.52402,13.81146 0.91447,20.03679 3.13287,7.99805 10.1219,14.07629 16.62192,19.69172 6.65853,5.7524 14.39122,10.34116 22.43119,13.91675 5.84406,2.59903 12.96154,2.01849 18.4319,5.33257 11.98119,7.25847 29.04447,30.37308 29.04447,30.37308 0,0 11.95796,16.34135 19.91488,22.37163 9.29735,7.04617 20.07691,12.77499 31.45804,15.33604 7.72764,1.73892 20.14673,2.03463 28.02525,1.2167 9.96649,-1.03468 16.57737,-2.26065 25.22073,-7.32952 4.74592,-2.78321 14.86893,-11.66899 18.40411,-15.88475 5.47242,-6.526 8.38383,-11.52178 12.63942,-17.23563 4.05498,-5.44452 7.68261,-11.2532 12.28566,-16.24297 5.76147,-6.24552 11.51883,-12.98567 19.02697,-16.96426 6.05341,-3.20773 13.77933,-1.99941 19.93146,-5.01339 9.45868,-4.63389 18.82597,-10.8649 24.87182,-19.48974 3.7276,-5.31772 5.79825,-12.02521 6.06622,-18.51379 0.29782,-7.21111 -1.35682,-14.8441 -5.02232,-21.06127 -12.55339,-21.29223 -54.78652,-49.96959 -54.78652,-49.96959 z"
         id="path1337"
         sodipodi:nodetypes="csssssscsssssssssssscc" />
      <path
         id="path974"
         style="fill:#268538;fill-opacity:1;stroke:#ffcc00;stroke-width:8.00001;stroke-linecap:butt;stroke-linejoin:miter;stroke-miterlimit:4;stroke-dasharray:none;stroke-opacity:1"
         d="m 313.26997,395.63509 c -7.08639,-0.0767 -18.88143,3.51205 -18.88143,3.51205 l -30.227,6.85137 -1.08041,-0.63394 5.99308,2.19202 -29.39659,-6.66395 c 0,0 -17.78811,-4.56616 -24.87452,-4.48963 -0.47244,0.004 -0.92263,0.0227 -1.34826,0.0658 -8.79569,0.82337 -17.28881,4.64802 -24.84589,9.22344 -7.06388,4.27684 -13.60833,9.86234 -18.40524,16.5837 -4.49017,6.2917 -7.57513,13.75548 -9.08059,21.33698 -1.21445,6.11592 -0.34851,12.49402 0.19347,18.70587 0.89105,10.20843 5.01501,30.32806 5.01501,30.32806 l 3.71737,20.92615 0.76489,19.9708 c 0,0 -14.12856,20.73686 -19.48266,32.02767 -3.84124,8.10036 -9.00482,16.39888 -8.94665,25.36373 0.0461,7.06515 2.70815,14.53508 7.30972,19.89642 8.09976,9.43706 32.66454,18.02714 32.66454,18.02714 0,0 12.04821,8.5299 21.6464,16.76541 6.6776,5.72954 19.31596,20.60807 26.53344,25.64058 5.32368,3.71195 10.12789,8.64556 16.30103,10.64897 5.75165,1.86686 12.19419,2.52152 18.15227,1.35731 l 1.37613,0.3781 c 5.40718,0.70265 9.72264,-0.83731 14.86535,-2.50356 6.17311,-2.00341 10.97735,-6.93698 16.30104,-10.64897 7.21746,-5.03251 19.85578,-19.91108 26.53338,-25.64058 9.59822,-8.23551 21.64645,-16.76541 21.64645,-16.76541 0,0 24.56477,-8.59008 32.66453,-18.02714 4.60157,-5.36134 7.26365,-12.83127 7.30972,-19.89646 0.0582,-8.96481 -5.10539,-17.26337 -8.94663,-25.36369 -5.35412,-11.29084 -19.48268,-32.02768 -19.48268,-32.02768 l 0.76491,-19.97083 3.71731,-20.92607 c 0,0 4.124,-20.11971 5.01502,-30.32814 0.54198,-6.21185 1.40791,-12.58987 0.19351,-18.70583 -1.50546,-7.58147 -4.59042,-15.04543 -9.08058,-21.33694 -4.79694,-6.7214 -11.34138,-12.30694 -18.40524,-16.58378 -7.55709,-4.57534 -16.05018,-8.40007 -24.84593,-9.22341 -0.42562,-0.0404 -0.87576,-0.0605 -1.3482,-0.0658 z"
         sodipodi:nodetypes="ccccccccsssccccscscssccccsscscsccccsssccc" />
      <path
         style="fill:#ffcc00;stroke:none;stroke-width:0.999999px;stroke-linecap:butt;stroke-linejoin:miter;stroke-opacity:1"
         d="m 245.71428,400.16462 v 50.00002 l 20,19.99997 20.00002,-19.99997 v -50.00002 l -20.00002,9.99999 z"
         id="path1071"
         sodipodi:nodetypes="ccccccc" />
      <path
         style="fill:#ff5555;stroke:none;stroke-width:0.6px;stroke-linecap:butt;stroke-linejoin:miter;stroke-opacity:1"
         d="m 253.71427,414.16464 v 30.00004 l 12.00002,12 12.00002,-12 v -30.00004 l -12.00002,6 z"
         id="path1073"
         sodipodi:nodetypes="ccccccc" />
      <circle
         style="fill:#ff6600;fill-opacity:1;stroke:none;stroke-width:3;stroke-miterlimit:4;stroke-dasharray:none;stroke-opacity:1"
         id="path1144"
         cx="185.71429"
         cy="382.06512"
         r="10" />
      <circle
         style="fill:#ff6600;fill-opacity:1;stroke:none;stroke-width:3;stroke-miterlimit:4;stroke-dasharray:none;stroke-opacity:1"
         id="circle1148"
         cx="345.71423"
         cy="382.06512"
         r="10" />
      <circle
         style="fill:#ff6600;fill-opacity:1;stroke:none;stroke-width:3;stroke-miterlimit:4;stroke-dasharray:none;stroke-opacity:1"
         id="circle1168"
         cx="265.71429"
         cy="372.06506"
         r="10" />
      <circle
         style="fill:#ff2a2a;fill-opacity:1;stroke:none;stroke-width:3;stroke-miterlimit:4;stroke-dasharray:none;stroke-opacity:1"
         id="path1228"
         cx="195.71428"
         cy="582.06506"
         r="10" />
      <circle
         style="fill:#ff2a2a;fill-opacity:1;stroke:none;stroke-width:3;stroke-miterlimit:4;stroke-dasharray:none;stroke-opacity:1"
         id="circle1230"
         cx="335.71432"
         cy="582.06506"
         r="10" />
      <path
         style="fill:#ff2a2a;fill-opacity:1;stroke:none;stroke-width:0.999999px;stroke-linecap:butt;stroke-linejoin:miter;stroke-opacity:1"
         d="m 205.71428,582.06509 c 0,0 26.35929,-8.32075 40,-9.99999 13.23344,-1.62913 26.76658,-1.62913 40.00002,0 13.64069,1.67924 39.99999,9.99999 39.99999,9.99999 0,0 -26.3593,8.32074 -39.99999,9.99998 -13.23344,1.62913 -26.76657,1.62913 -40.00002,4e-5 -13.64071,-1.67924 -40,-10.00002 -40,-10.00002 z"
         id="path1232"
         sodipodi:nodetypes="csscssc" />
      <circle
         style="fill:#ff9955;fill-opacity:1;stroke:none;stroke-width:6.77136;stroke-miterlimit:4;stroke-dasharray:none;stroke-opacity:1"
         id="path983"
         cx="389.82022"
         cy="518.32397"
         r="33.856647" />
      <circle
         style="fill:#ff9955;fill-opacity:1;stroke:none;stroke-width:6.77136;stroke-miterlimit:4;stroke-dasharray:none;stroke-opacity:1"
         id="circle987"
         cx="141.53835"
         cy="517.41382"
         r="33.856647" />
      <circle
         style="fill:#abc837;fill-opacity:1;stroke:none;stroke-width:3.69035;stroke-miterlimit:4;stroke-dasharray:none;stroke-opacity:1"
         id="circle989"
         cx="145.12596"
         cy="466.85016"
         r="18.451637" />
      <circle
         style="fill:#abc837;fill-opacity:1;stroke:none;stroke-width:3.69035;stroke-miterlimit:4;stroke-dasharray:none;stroke-opacity:1"
         id="circle991"
         cx="387.14633"
         cy="466.85016"
         r="18.451637" />
      <ellipse
         style="fill:#2a2aff;fill-opacity:1;stroke:none;stroke-width:0.399999;stroke-miterlimit:4;stroke-dasharray:none;stroke-opacity:1"
         id="path1413"
         cx="145.71428"
         cy="352.06506"
         rx="40.000004"
         ry="39.999969" />
      <ellipse
         style="fill:#2a2aff;fill-opacity:1;stroke:none;stroke-width:0.399999;stroke-miterlimit:4;stroke-dasharray:none;stroke-opacity:1"
         id="ellipse1415"
         cx="385.71429"
         cy="352.06506"
         rx="40.000004"
         ry="39.999969" />
      <path
         style="fill:none;stroke:#000000;stroke-width:11.3386;stroke-linecap:round;stroke-linejoin:round;stroke-miterlimit:4;stroke-dasharray:none;stroke-opacity:1"
         d="m 177.35746,474.34779 15.07714,12.04815 40.6166,-20.78517 8.6779,8.57658"
         id="path1477" />
      <path
         style="fill:none;stroke:#000000;stroke-width:11.3386;stroke-linecap:round;stroke-linejoin:round;stroke-miterlimit:4;stroke-dasharray:none;stroke-opacity:1"
         d="m 354.07114,474.34776 -15.07714,12.04815 -40.61662,-20.78517 -8.67787,8.57657"
         id="path1481" />
    </g>
    <rect
       style="fill:#b3b3b3;fill-opacity:1;stroke:none;stroke-width:8.7585;stroke-linecap:round;stroke-linejoin:round"
       id="rect1385"
       width="334.13791"
       height="79.999992"
       x="415.86209"
       y="382.30536"
       inkscape:export-xdpi="96"
       inkscape:export-ydpi="96" />
    <path
       d="m 462.60614,401.47723 c -1.05469,0 -1.89844,0.46875 -1.89844,1.05469 v 29.69531 c 0,0.58594 0.84375,1.05469 1.89844,1.05469 h 10.92188 c 9.30468,0 14.50781,-7.19531 14.48437,-15.84375 0,-8.57812 -5.20312,-15.96094 -14.48437,-15.96094 z m 10.92188,2.13282 c 7.26562,0 10.6875,7.52343 10.6875,13.82812 0.0234,6.375 -3.39844,13.71094 -10.6875,13.71094 h -9 v -27.53906 z"
       style="font-style:normal;font-variant:normal;font-weight:normal;font-stretch:normal;font-size:48px;line-height:1.25;font-family:Gayathri;-inkscape-font-specification:'Gayathri, Normal';font-variant-ligatures:normal;font-variant-caps:normal;font-variant-numeric:normal;font-variant-east-asian:normal;fill:#1a1a1a;fill-opacity:1;stroke:none"
       id="path1162" />
    <path
       d="m 493.44989,433.84442 c 1.05469,0 1.89844,-0.46875 1.89844,-1.07812 v -11.53125 c 0,-3.72657 1.19531,-9.21094 5.67187,-9.21094 2.03907,0 2.64844,1.19531 3.75,1.19531 0.375,0 0.77344,-0.11719 1.10157,-0.35156 0.375,-0.28125 0.63281,-0.63281 0.63281,-1.00781 0,-0.25782 -0.14063,-0.53907 -0.46875,-0.75 -1.42969,-0.9375 -2.85938,-1.26563 -4.54688,-1.26563 -2.69531,0 -4.875,0.9375 -6.14062,3.67969 v -2.60156 c 0,-0.60938 -0.84375,-1.07813 -1.89844,-1.07813 -1.05469,0 -1.92187,0.46875 -1.92187,1.07813 v 21.84375 c 0,0.60937 0.86718,1.07812 1.92187,1.07812 z"
       style="font-style:normal;font-variant:normal;font-weight:normal;font-stretch:normal;font-size:48px;line-height:1.25;font-family:Gayathri;-inkscape-font-specification:'Gayathri, Normal';font-variant-ligatures:normal;font-variant-caps:normal;font-variant-numeric:normal;font-variant-east-asian:normal;fill:#1a1a1a;fill-opacity:1;stroke:none"
       id="path1164" />
    <path
       d="m 529.35614,433.84442 c 0.60938,0 1.89844,-0.25781 1.89844,-1.07812 0,-0.25782 -0.16406,-0.51563 -0.51563,-0.72657 -0.58593,-0.35156 -0.96093,-0.82031 -1.21875,-1.35937 -0.375,-0.84375 -0.44531,-1.82813 -0.44531,-2.74219 v -10.28906 c 0,-5.64844 -5.55469,-7.80469 -10.38281,-7.80469 -2.74219,0 -5.34375,0.70313 -7.26563,1.99219 -1.82812,1.21875 -3.02343,2.97656 -3.04687,4.75781 0,0.58594 0.84375,1.07813 1.89844,1.07813 1.05468,0 1.89843,-0.49219 1.89843,-1.07813 0,-1.26562 0.86719,-2.53125 2.15625,-3.375 1.21875,-0.79687 2.78907,-1.24219 4.35938,-1.24219 3.51562,0 6.5625,1.85157 6.5625,5.67188 v 2.36719 c -1.00781,0.63281 -2.57813,0.77343 -4.17188,0.77343 -1.3125,0 -2.625,-0.0937 -3.63281,-0.0937 -3.02344,0 -6.46875,0.35157 -8.36719,2.41407 -1.03125,1.125 -1.40625,2.53125 -1.40625,4.03125 0,2.50781 1.35938,4.21875 3.25782,5.27343 1.78125,1.00782 4.00781,1.42969 6.07031,1.42969 2.95312,0 6.77344,-1.14844 8.71875,-3.35156 0.44531,1.6875 1.75781,3.35156 3.63281,3.35156 z m -12.35156,-2.13281 c -1.5,0 -2.90625,-0.375 -3.89063,-1.14844 -1.10156,-0.82031 -1.64062,-2.15625 -1.66406,-3.49219 0,-0.79687 0.1875,-1.61718 0.58594,-2.32031 1.03125,-1.85156 3.35156,-1.96875 5.22656,-1.94531 1.42969,0 2.85938,0.11719 4.3125,0.11719 1.24219,0 2.48438,-0.0703 3.67969,-0.32813 v 2.67188 c 0,4.17187 -4.57031,6.44531 -8.25,6.44531 z"
       style="font-style:normal;font-variant:normal;font-weight:normal;font-stretch:normal;font-size:48px;line-height:1.25;font-family:Gayathri;-inkscape-font-specification:'Gayathri, Normal';font-variant-ligatures:normal;font-variant-caps:normal;font-variant-numeric:normal;font-variant-east-asian:normal;fill:#1a1a1a;fill-opacity:1;stroke:none"
       id="path1166" />
    <path
       d="m 556.66083,433.84442 c 0.9375,0 1.85156,-0.30469 2.08594,-0.86719 l 8.76562,-22.14843 c 0.0469,-0.14063 0.0937,-0.25782 0.0937,-0.35157 0,-0.51562 -1.03125,-0.63281 -1.38281,-0.63281 -0.58594,0 -1.21875,0.1875 -1.35938,0.5625 l -7.3125,18.49219 -5.41406,-18.1875 c -0.16406,-0.5625 -1.05469,-0.84375 -1.96875,-0.84375 -0.9375,0 -1.89844,0.30469 -2.0625,0.84375 l -5.625,18.21094 -7.24219,-18.25782 c -0.23437,-0.5625 -1.07812,-0.82031 -1.94531,-0.82031 -1.00781,0 -2.03906,0.35156 -2.03906,0.98438 0,0.11718 0.0234,0.21093 0.0703,0.30468 l 8.69531,21.89063 c 0.21094,0.5625 1.07813,0.82031 1.96875,0.82031 0.9375,0 1.875,-0.32812 2.0625,-0.89062 l 5.41407,-17.57813 5.22656,17.60156 c 0.16406,0.58594 1.05469,0.86719 1.96875,0.86719 z"
       style="font-style:normal;font-variant:normal;font-weight:normal;font-stretch:normal;font-size:48px;line-height:1.25;font-family:Gayathri;-inkscape-font-specification:'Gayathri, Normal';font-variant-ligatures:normal;font-variant-caps:normal;font-variant-numeric:normal;font-variant-east-asian:normal;fill:#1a1a1a;fill-opacity:1;stroke:none"
       id="path1168" />
    <path
       d="m 586.07489,432.78973 v -14.17968 h 15 c 1.05469,0 1.92188,-0.49219 1.92188,-1.07813 0,-0.58594 -0.86719,-1.05469 -1.92188,-1.05469 h -15 v -12.86718 h 17.78906 c 1.05469,0 1.89844,-0.46875 1.89844,-1.07813 0,-0.58594 -0.84375,-1.05469 -1.89844,-1.05469 h -19.71093 c -1.05469,0 -1.89844,0.46875 -1.89844,1.05469 v 30.25781 c 0,0.58594 0.84375,1.05469 1.89844,1.05469 1.05468,0 1.92187,-0.46875 1.92187,-1.05469 z"
       style="font-style:normal;font-variant:normal;font-weight:normal;font-stretch:normal;font-size:48px;line-height:1.25;font-family:Gayathri;-inkscape-font-specification:'Gayathri, Normal';font-variant-ligatures:normal;font-variant-caps:normal;font-variant-numeric:normal;font-variant-east-asian:normal;fill:#1a1a1a;fill-opacity:1;stroke:none"
       id="path1170" />
    <path
       d="m 611.19989,433.84442 c 1.05469,0 1.89844,-0.46875 1.89844,-1.07812 v -11.53125 c 0,-3.72657 1.19531,-9.21094 5.67187,-9.21094 2.03907,0 2.64844,1.19531 3.75,1.19531 0.375,0 0.77344,-0.11719 1.10157,-0.35156 0.375,-0.28125 0.63281,-0.63281 0.63281,-1.00781 0,-0.25782 -0.14063,-0.53907 -0.46875,-0.75 -1.42969,-0.9375 -2.85938,-1.26563 -4.54688,-1.26563 -2.69531,0 -4.875,0.9375 -6.14062,3.67969 v -2.60156 c 0,-0.60938 -0.84375,-1.07813 -1.89844,-1.07813 -1.05469,0 -1.92187,0.46875 -1.92187,1.07813 v 21.84375 c 0,0.60937 0.86718,1.07812 1.92187,1.07812 z"
       style="font-style:normal;font-variant:normal;font-weight:normal;font-stretch:normal;font-size:48px;line-height:1.25;font-family:Gayathri;-inkscape-font-specification:'Gayathri, Normal';font-variant-ligatures:normal;font-variant-caps:normal;font-variant-numeric:normal;font-variant-east-asian:normal;fill:#1a1a1a;fill-opacity:1;stroke:none"
       id="path1172" />
    <path
       d="m 637.02802,433.84442 c 2.85937,0 5.88281,-0.75 8.27343,-2.34375 1.42969,-0.9375 2.48438,-2.10937 3.09375,-3.375 0.23438,-0.49219 0.51563,-1.28906 0.51563,-1.82812 0,-0.79688 -1.33594,-1.05469 -1.92188,-1.05469 -1.00781,0 -1.80468,0.44531 -1.875,1.00781 -0.14062,1.42969 -1.17187,2.8125 -2.74218,3.86719 -1.54688,1.05469 -3.46875,1.59375 -5.32032,1.59375 -5.4375,0 -8.41406,-4.80469 -8.41406,-9.79688 h 18.82031 c 0.84375,0 1.89844,-0.28125 1.89844,-1.26562 0,-7.07813 -5.41406,-10.80469 -12.14062,-10.80469 -7.17188,0 -12.375,4.94531 -12.375,12.1875 0,7.14844 5.15625,11.8125 12.1875,11.8125 z m 8.48437,-14.08594 h -16.66406 c 0.79687,-4.21875 3.82031,-7.78125 8.36719,-7.78125 4.78125,0 7.94531,3.09375 8.29687,7.78125 z"
       style="font-style:normal;font-variant:normal;font-weight:normal;font-stretch:normal;font-size:48px;line-height:1.25;font-family:Gayathri;-inkscape-font-specification:'Gayathri, Normal';font-variant-ligatures:normal;font-variant-caps:normal;font-variant-numeric:normal;font-variant-east-asian:normal;fill:#1a1a1a;fill-opacity:1;stroke:none"
       id="path1174" />
    <path
       d="m 663.88739,433.84442 c 2.85938,0 5.88281,-0.75 8.27344,-2.34375 1.42969,-0.9375 2.48437,-2.10937 3.09375,-3.375 0.23437,-0.49219 0.51562,-1.28906 0.51562,-1.82812 0,-0.79688 -1.33593,-1.05469 -1.92187,-1.05469 -1.00781,0 -1.80469,0.44531 -1.875,1.00781 -0.14063,1.42969 -1.17188,2.8125 -2.74219,3.86719 -1.54687,1.05469 -3.46875,1.59375 -5.32031,1.59375 -5.4375,0 -8.41406,-4.80469 -8.41406,-9.79688 h 18.82031 c 0.84375,0 1.89844,-0.28125 1.89844,-1.26562 0,-7.07813 -5.41407,-10.80469 -12.14063,-10.80469 -7.17187,0 -12.375,4.94531 -12.375,12.1875 0,7.14844 5.15625,11.8125 12.1875,11.8125 z m 8.48438,-14.08594 H 655.7077 c 0.79688,-4.21875 3.82032,-7.78125 8.36719,-7.78125 4.78125,0 7.94531,3.09375 8.29688,7.78125 z"
       style="font-style:normal;font-variant:normal;font-weight:normal;font-stretch:normal;font-size:48px;line-height:1.25;font-family:Gayathri;-inkscape-font-specification:'Gayathri, Normal';font-variant-ligatures:normal;font-variant-caps:normal;font-variant-numeric:normal;font-variant-east-asian:normal;fill:#1a1a1a;fill-opacity:1;stroke:none"
       id="path1176" />
    <path
       d="m 679.1452,401.96942 v 30.82031 c 0,0.58594 0.84375,1.05469 1.92188,1.05469 1.05469,0 1.89844,-0.46875 1.89844,-1.05469 v -30.82031 c 0,-0.58594 -0.84375,-1.05469 -1.89844,-1.05469 -1.07813,0 -1.92188,0.46875 -1.92188,1.05469 z"
       style="font-style:normal;font-variant:normal;font-weight:normal;font-stretch:normal;font-size:48px;line-height:1.25;font-family:Gayathri;-inkscape-font-specification:'Gayathri, Normal';font-variant-ligatures:normal;font-variant-caps:normal;font-variant-numeric:normal;font-variant-east-asian:normal;fill:#1a1a1a;fill-opacity:1;stroke:none"
       id="path1178" />
    <path
       d="m 708.62958,432.50848 v -21.70312 c 0,-0.58594 -0.86719,-1.07813 -1.92188,-1.07813 -1.05468,0 -1.89843,0.49219 -1.89843,1.07813 v 12.375 c 0,4.125 -2.57813,8.4375 -6.96094,8.4375 -4.57031,0 -6.96094,-4.17188 -6.96094,-8.39063 v -12.42187 c 0,-0.58594 -0.84375,-1.07813 -1.89844,-1.07813 -1.05468,0 -1.92187,0.49219 -1.92187,1.07813 v 12.42187 c 0,6.42188 4.59375,10.52344 10.78125,10.52344 2.57812,0 5.41406,-1.05469 6.96094,-3.07031 v 1.82812 c 0,4.94532 -2.20313,8.03907 -7.40625,8.03907 -2.41407,0 -5.08594,-0.75 -6.51563,-2.83594 -0.35156,-0.53906 -1.125,-0.67969 -1.82812,-0.67969 -0.60938,0 -1.875,0.25781 -1.875,1.03125 0,0.11719 0.0469,0.25781 0.14062,0.39844 1.875,2.74219 5.92969,4.19531 9.98438,4.19531 5.64843,0 11.32031,-2.92969 11.32031,-10.14844 z"
       style="font-style:normal;font-variant:normal;font-weight:normal;font-stretch:normal;font-size:48px;line-height:1.25;font-family:Gayathri;-inkscape-font-specification:'Gayathri, Normal';font-variant-ligatures:normal;font-variant-caps:normal;font-variant-numeric:normal;font-variant-east-asian:normal;fill:#1a1a1a;fill-opacity:1;stroke:none"
       id="path1180" />
    <rect
       style="fill:#666666;fill-opacity:1;stroke:none;stroke-width:11.6995;stroke-linecap:round;stroke-linejoin:round"
       id="rect1387"
       width="255.51723"
       height="80"
       x="494.48276"
       y="482.30536"
       inkscape:export-xdpi="96"
       inkscape:export-ydpi="96" />
    <path
       d="m 531.77307,532.74304 v -25.68359 c 0,-0.48828 -0.70312,-0.87891 -1.58203,-0.87891 -0.89844,0 -1.60156,0.39063 -1.60156,0.87891 v 25.68359 c 0,0.48828 0.70312,0.87891 1.60156,0.87891 0.87891,0 1.58203,-0.39063 1.58203,-0.87891 z"
       style="font-style:normal;font-variant:normal;font-weight:normal;font-stretch:normal;font-size:40px;line-height:1.25;font-family:Gayathri;-inkscape-font-specification:'Gayathri, Normal';font-variant-ligatures:normal;font-variant-caps:normal;font-variant-numeric:normal;font-variant-east-asian:normal;fill:#cccccc;fill-opacity:1;stroke:none"
       id="path1183" />
    <path
       d="m 551.06995,533.64148 c 0.8789,0 1.60156,-0.41016 1.60156,-0.89844 v -10.35156 c 0,-5.82031 -4.375,-8.80859 -8.53516,-8.78906 -2.5,0 -5.03906,0.95703 -6.25,3.125 v -2.20703 c 0,-0.48829 -0.70312,-0.89844 -1.58203,-0.89844 -0.8789,0 -1.60156,0.41015 -1.60156,0.89844 v 18.22265 c 0,0.48828 0.72266,0.89844 1.60156,0.89844 0.87891,0 1.58203,-0.41016 1.58203,-0.89844 v -9.78515 c 0,-5 2.71485,-7.51954 5.97657,-7.51954 3.82812,0 5.625,3.55469 5.625,6.95313 v 10.35156 c 0,0.48828 0.70312,0.89844 1.58203,0.89844 z"
       style="font-style:normal;font-variant:normal;font-weight:normal;font-stretch:normal;font-size:40px;line-height:1.25;font-family:Gayathri;-inkscape-font-specification:'Gayathri, Normal';font-variant-ligatures:normal;font-variant-caps:normal;font-variant-numeric:normal;font-variant-east-asian:normal;fill:#cccccc;fill-opacity:1;stroke:none"
       id="path1185" />
    <path
       d="m 573.06213,533.62195 c 0.29297,0 0.82032,-0.0586 1.25,-0.23438 0.39063,-0.15625 0.70313,-0.39062 0.70313,-0.74218 0,-0.13672 -0.0781,-0.27344 -0.19531,-0.41016 l -9.58985,-10.37109 8.41797,-7.20704 c 0.13672,-0.11718 0.19531,-0.23437 0.19531,-0.33203 0,-0.29297 -0.39062,-0.52734 -0.70312,-0.60547 -0.19531,-0.0586 -0.44922,-0.0977 -0.70313,-0.0977 -0.42968,0 -0.8789,0.0977 -1.15234,0.35156 l -11.54297,9.86328 V 507.0594 c 0,-0.48828 -0.70312,-0.87891 -1.58203,-0.87891 -0.87891,0 -1.60156,0.39063 -1.60156,0.87891 v 25.66406 c 0,0.50781 0.72265,0.89844 1.60156,0.89844 0.87891,0 1.58203,-0.39063 1.58203,-0.89844 v -6.17187 l 3.08594,-2.63672 8.4375,9.14062 c 0.37109,0.41016 1.13281,0.56641 1.79687,0.56641 z"
       style="font-style:normal;font-variant:normal;font-weight:normal;font-stretch:normal;font-size:40px;line-height:1.25;font-family:Gayathri;-inkscape-font-specification:'Gayathri, Normal';font-variant-ligatures:normal;font-variant-caps:normal;font-variant-numeric:normal;font-variant-east-asian:normal;fill:#cccccc;fill-opacity:1;stroke:none"
       id="path1187" />
    <path
       d="m 584.87854,533.62195 c 3.63281,0 8.30078,-1.81641 8.30078,-6.01563 0,-1.8164 -0.80078,-3.08593 -2.30469,-4.0625 -1.77734,-1.15234 -3.71093,-1.34765 -5.5664,-1.62109 -0.72266,-0.11719 -2.03125,-0.37109 -3.14453,-0.82031 -0.87891,-0.35157 -2.05078,-1.01563 -2.05078,-2.08985 0,-2.4414 2.71484,-3.61328 4.82421,-3.61328 2.1875,0 4.00391,1.19141 4.55079,3.39844 0.11718,0.50781 0.83984,0.74219 1.5625,0.74219 0.80078,0 1.60156,-0.29297 1.60156,-0.82032 0,-0.13671 -0.0391,-0.27343 -0.0977,-0.46875 -0.97656,-3.26171 -4.41406,-4.6289 -7.61719,-4.6289 -3.24218,0 -8.00781,1.5625 -8.00781,5.44922 0,1.73828 0.95703,3.16406 2.36328,4.12109 1.73828,1.17188 3.75,1.32813 5.6836,1.60156 0.78125,0.11719 2.10937,0.35157 3.20312,0.83985 0.85938,0.37109 1.83594,1.03515 1.83594,2.08984 0,2.67578 -2.79297,4.12109 -5.13672,4.12109 -2.59766,0 -4.57031,-1.44531 -5.25391,-4.04296 -0.13671,-0.52735 -0.83984,-0.76172 -1.54296,-0.76172 -0.52735,0 -1.6211,0.15625 -1.6211,0.85937 0,0.15625 0.0391,0.35156 0.0781,0.52735 0.76172,3.76953 4.82422,5.19531 8.33984,5.19531 z"
       style="font-style:normal;font-variant:normal;font-weight:normal;font-stretch:normal;font-size:40px;line-height:1.25;font-family:Gayathri;-inkscape-font-specification:'Gayathri, Normal';font-variant-ligatures:normal;font-variant-caps:normal;font-variant-numeric:normal;font-variant-east-asian:normal;fill:#cccccc;fill-opacity:1;stroke:none"
       id="path1189" />
    <path
       d="m 612.76917,526.47351 c -0.82032,0 -1.50391,0.35156 -1.58204,0.80078 -0.48828,2.71485 -3.26171,4.57031 -5.9375,4.57031 -4.60937,0 -6.93359,-3.86718 -6.93359,-8.10546 0,-4.29688 2.32422,-8.33985 7.05078,-8.33985 2.67578,0 5.39063,1.73828 5.78125,4.55078 0.0586,0.46875 0.76172,0.82032 1.58203,0.82032 0.52735,0 1.58203,-0.23438 1.58203,-0.89844 0,-0.82031 -0.64453,-2.16797 -1.11328,-2.79297 -1.69922,-2.34375 -5.01953,-3.45703 -7.87109,-3.45703 -6.09375,0 -10.21484,3.98437 -10.19531,10.11719 0,6.01562 4.02343,9.88281 9.98047,9.88281 2.96875,0 6.44531,-1.21094 8.20312,-3.69141 0.41016,-0.58594 1.03516,-1.89453 1.03516,-2.61719 0,-0.60546 -1.11328,-0.83984 -1.58203,-0.83984 z"
       style="font-style:normal;font-variant:normal;font-weight:normal;font-stretch:normal;font-size:40px;line-height:1.25;font-family:Gayathri;-inkscape-font-specification:'Gayathri, Normal';font-variant-ligatures:normal;font-variant-caps:normal;font-variant-numeric:normal;font-variant-east-asian:normal;fill:#cccccc;fill-opacity:1;stroke:none"
       id="path1191" />
    <path
       d="m 634.85901,533.62195 c 0.50781,0 1.58203,-0.21485 1.58203,-0.89844 0,-0.21484 -0.13672,-0.42969 -0.42969,-0.60547 -0.48828,-0.29297 -0.80078,-0.68359 -1.01562,-1.13281 -0.3125,-0.70313 -0.3711,-1.52344 -0.3711,-2.28516 v -8.57422 c 0,-4.70703 -4.6289,-6.5039 -8.65234,-6.5039 -2.28516,0 -4.45312,0.58594 -6.05469,1.66015 -1.52343,1.01563 -2.51953,2.48047 -2.53906,3.96485 0,0.48828 0.70313,0.89844 1.58203,0.89844 0.87891,0 1.58203,-0.41016 1.58203,-0.89844 0,-1.05469 0.72266,-2.10938 1.79688,-2.8125 1.01562,-0.66406 2.32422,-1.03516 3.63281,-1.03516 2.92969,0 5.46875,1.54297 5.46875,4.72656 v 1.97266 c -0.83984,0.52734 -2.14844,0.64453 -3.47656,0.64453 -1.09375,0 -2.1875,-0.0781 -3.02735,-0.0781 -2.51953,0 -5.39062,0.29297 -6.97265,2.01172 -0.85938,0.9375 -1.17188,2.10937 -1.17188,3.35937 0,2.08984 1.13282,3.51563 2.71485,4.39453 1.48437,0.83985 3.33984,1.19141 5.05859,1.19141 2.46094,0 5.64453,-0.95703 7.26563,-2.79297 0.37109,1.40625 1.46484,2.79297 3.02734,2.79297 z m -10.29297,-1.77735 c -1.25,0 -2.42187,-0.3125 -3.24219,-0.95703 -0.91797,-0.68359 -1.36718,-1.79687 -1.38672,-2.91015 0,-0.66407 0.15625,-1.34766 0.48829,-1.9336 0.85937,-1.54297 2.79296,-1.64062 4.35546,-1.62109 1.19141,0 2.38282,0.0977 3.59375,0.0977 1.03516,0 2.07032,-0.0586 3.06641,-0.27344 v 2.22656 c 0,3.47656 -3.80859,5.37109 -6.875,5.37109 z"
       style="font-style:normal;font-variant:normal;font-weight:normal;font-stretch:normal;font-size:40px;line-height:1.25;font-family:Gayathri;-inkscape-font-specification:'Gayathri, Normal';font-variant-ligatures:normal;font-variant-caps:normal;font-variant-numeric:normal;font-variant-east-asian:normal;fill:#cccccc;fill-opacity:1;stroke:none"
       id="path1193" />
    <path
       d="m 648.49182,533.62195 c 5.95703,0 9.60938,-4.33594 9.60938,-10 0,-5.66406 -3.65235,-10 -9.60938,-10 -2.83203,0 -5.27344,1.28906 -6.42578,2.92969 v -2.07032 c 0,-0.48828 -0.70312,-0.8789 -1.58203,-0.8789 -0.87891,0 -1.60156,0.39062 -1.60156,0.8789 v 25.6836 c 0,0.48828 0.72265,0.8789 1.60156,0.8789 0.87891,0 1.58203,-0.39062 1.58203,-0.8789 v -9.47266 c 1.15234,1.64063 3.59375,2.92969 6.42578,2.92969 z m 0,-1.77735 c -4.33594,0 -6.42578,-4.43359 -6.42578,-8.22265 0,-3.78906 2.08984,-8.22266 6.42578,-8.22266 4.33594,0 6.42578,4.4336 6.42578,8.22266 0,3.78906 -2.08984,8.22265 -6.42578,8.22265 z"
       style="font-style:normal;font-variant:normal;font-weight:normal;font-stretch:normal;font-size:40px;line-height:1.25;font-family:Gayathri;-inkscape-font-specification:'Gayathri, Normal';font-variant-ligatures:normal;font-variant-caps:normal;font-variant-numeric:normal;font-variant-east-asian:normal;fill:#cccccc;fill-opacity:1;stroke:none"
       id="path1195" />
    <path
       d="m 670.21057,533.62195 c 2.38281,0 4.90235,-0.625 6.89453,-1.95313 1.19141,-0.78125 2.07032,-1.75781 2.57813,-2.8125 0.19531,-0.41015 0.42969,-1.07422 0.42969,-1.52343 0,-0.66407 -1.11329,-0.87891 -1.60157,-0.87891 -0.83984,0 -1.5039,0.37109 -1.5625,0.83984 -0.11718,1.19141 -0.97656,2.34375 -2.28515,3.22266 -1.28907,0.87891 -2.89063,1.32812 -4.4336,1.32812 -4.53125,0 -7.01172,-4.0039 -7.01172,-8.16406 h 15.6836 c 0.70312,0 1.58203,-0.23437 1.58203,-1.05469 0,-5.89843 -4.51172,-9.0039 -10.11719,-9.0039 -5.97656,0 -10.3125,4.12109 -10.3125,10.15625 0,5.95703 4.29688,9.84375 10.15625,9.84375 z m 7.07031,-11.73828 h -13.88671 c 0.66406,-3.51563 3.18359,-6.48438 6.97265,-6.48438 3.98438,0 6.6211,2.57813 6.91406,6.48438 z"
       style="font-style:normal;font-variant:normal;font-weight:normal;font-stretch:normal;font-size:40px;line-height:1.25;font-family:Gayathri;-inkscape-font-specification:'Gayathri, Normal';font-variant-ligatures:normal;font-variant-caps:normal;font-variant-numeric:normal;font-variant-east-asian:normal;fill:#cccccc;fill-opacity:1;stroke:none"
       id="path1197" />
    <path
       d="m 685.50354,528.95398 c -1.15234,0 -2.08984,0.9375 -2.08984,2.08984 0,1.17188 0.9375,2.10938 2.08984,2.10938 1.17188,0 2.10938,-0.9375 2.10938,-2.10938 0,-1.15234 -0.9375,-2.08984 -2.10938,-2.08984 z"
       style="font-style:normal;font-variant:normal;font-weight:normal;font-stretch:normal;font-size:40px;line-height:1.25;font-family:Gayathri;-inkscape-font-specification:'Gayathri, Normal';font-variant-ligatures:normal;font-variant-caps:normal;font-variant-numeric:normal;font-variant-east-asian:normal;fill:#cccccc;fill-opacity:1;stroke:none"
       id="path1199" />
    <path
       d="m 700.79651,513.62195 c -6.01563,0 -10.25391,4.0625 -10.25391,10 0,5.9375 4.23828,10 10.25391,10 6.01562,0 10.25391,-4.0625 10.25391,-10 0,-5.9375 -4.23829,-10 -10.25391,-10 z m 0,1.77734 c 4.55078,0 7.07031,4.08203 7.07031,8.22266 0,4.14062 -2.51953,8.22265 -7.07031,8.22265 -4.55078,0 -7.07031,-4.08203 -7.07031,-8.22265 0,-4.14063 2.51953,-8.22266 7.07031,-8.22266 z"
       style="font-style:normal;font-variant:normal;font-weight:normal;font-stretch:normal;font-size:40px;line-height:1.25;font-family:Gayathri;-inkscape-font-specification:'Gayathri, Normal';font-variant-ligatures:normal;font-variant-caps:normal;font-variant-numeric:normal;font-variant-east-asian:normal;fill:#cccccc;fill-opacity:1;stroke:none"
       id="path1201" />
    <path
       d="m 715.58167,533.62195 c 0.8789,0 1.58203,-0.39063 1.58203,-0.89844 v -9.60937 c 0,-3.10547 0.99609,-7.67579 4.72656,-7.67579 1.69922,0 2.20703,0.9961 3.125,0.9961 0.3125,0 0.64453,-0.0977 0.91797,-0.29297 0.3125,-0.23438 0.52734,-0.52734 0.52734,-0.83984 0,-0.21485 -0.11719,-0.44922 -0.39062,-0.625 -1.19141,-0.78125 -2.38282,-1.05469 -3.78907,-1.05469 -2.24609,0 -4.0625,0.78125 -5.11718,3.0664 v -2.16796 c 0,-0.50782 -0.70313,-0.89844 -1.58203,-0.89844 -0.87891,0 -1.60157,0.39062 -1.60157,0.89844 v 18.20312 c 0,0.50781 0.72266,0.89844 1.60157,0.89844 z"
       style="font-style:normal;font-variant:normal;font-weight:normal;font-stretch:normal;font-size:40px;line-height:1.25;font-family:Gayathri;-inkscape-font-specification:'Gayathri, Normal';font-variant-ligatures:normal;font-variant-caps:normal;font-variant-numeric:normal;font-variant-east-asian:normal;fill:#cccccc;fill-opacity:1;stroke:none"
       id="path1203" />
    <path
       d="m 746.12854,532.56726 v -18.06641 c 0,-0.50781 -0.68359,-0.89843 -1.5625,-0.89843 -0.87891,0 -1.58203,0.39062 -1.58203,0.89843 l -0.0195,2.07032 c -1.21094,-1.6211 -3.57422,-2.96875 -6.40625,-2.96875 -5.95703,0 -9.60938,4.33593 -9.60938,10 0,5.66406 3.65235,10 9.60938,10 2.8125,0 5.17578,-1.23047 6.40625,-2.89063 v 1.85547 c 0,4.25781 -2.63672,6.69922 -6.83594,6.69922 -2.07031,0 -4.88281,-0.60547 -6.07422,-2.36328 -0.29297,-0.41016 -0.91797,-0.56641 -1.46484,-0.56641 -0.52735,0 -1.6211,0.23438 -1.6211,0.85938 0,0.11718 0.0391,0.21484 0.11719,0.33203 1.75781,2.59765 5.97656,3.51562 9.02344,3.51562 5.37109,0 10.01953,-2.55859 10.01953,-8.47656 z m -9.57031,-0.74219 c -4.33594,0 -6.42578,-4.43359 -6.42578,-8.22265 0,-3.78907 2.08984,-8.22266 6.42578,-8.22266 4.33594,0 6.42578,4.43359 6.42578,8.22266 0,3.78906 -2.08984,8.22265 -6.42578,8.22265 z"
       style="font-style:normal;font-variant:normal;font-weight:normal;font-stretch:normal;font-size:40px;line-height:1.25;font-family:Gayathri;-inkscape-font-specification:'Gayathri, Normal';font-variant-ligatures:normal;font-variant-caps:normal;font-variant-numeric:normal;font-variant-east-asian:normal;fill:#cccccc;fill-opacity:1;stroke:none"
       id="path1205" />
    <path
       d="m 602.62953,609.99147 c 1.67729,0 3.33781,-0.26836 4.93123,-0.77155 0.33546,-0.10064 0.68769,-0.369 0.68769,-0.67092 0,-0.11741 -0.0503,-0.23482 -0.1845,-0.369 -0.26837,-0.26837 -0.73801,-0.38578 -1.1741,-0.38578 -0.2516,0 -0.48642,0.0335 -0.68769,0.10064 -1.15733,0.369 -2.36498,0.57028 -3.55586,0.57028 -2.29788,0 -4.54545,-0.68769 -6.42402,-2.01275 -3.63972,-2.53271 -5.11573,-6.67561 -5.09896,-10.96948 0,-3.7739 1.05669,-7.51425 3.75713,-10.26501 2.36498,-2.39852 5.50151,-3.55585 8.58772,-3.55585 2.91849,0 5.76988,1.02314 7.88327,3.06944 2.19725,2.09661 3.63972,5.26669 3.63972,9.59409 0,2.09662 -0.51996,4.27709 -1.76116,5.98793 -0.5535,0.77155 -1.55988,1.7947 -2.58302,1.7947 -1.22443,0 -1.50957,-1.29151 -1.50957,-2.48239 0,-0.53673 0.0671,-1.05669 0.11742,-1.40892 l 1.40892,-9.56056 c 0.0671,-0.50318 -0.93928,-0.68768 -1.34183,-0.68768 -0.73801,0 -1.32506,0.28514 -1.37538,0.68768 l -0.25159,1.84502 c -1.20765,-1.84502 -3.17008,-2.58302 -5.30024,-2.58302 -4.579,0 -6.9943,3.92486 -6.9943,8.10131 0,4.1429 2.48239,7.63167 7.11171,7.63167 1.82825,0 3.43844,-0.67092 4.579,-2.13016 0.50319,1.62697 1.84502,2.11338 3.43845,2.11338 2.18047,0 3.97517,-0.9896 5.23314,-2.75075 1.37538,-1.89534 1.94566,-4.24354 1.94566,-6.55821 0,-4.62932 -1.57666,-8.06776 -3.99195,-10.36565 -2.73399,-2.63334 -6.50789,-3.82422 -10.24825,-3.82422 -4.04226,0 -8.10131,1.40893 -10.96947,4.34418 -2.91849,2.96881 -4.09259,6.94398 -4.09259,11.0198 0,4.7635 1.67729,9.14123 5.68601,11.92553 2.49917,1.72761 5.51829,2.56625 8.53741,2.56625 z m -0.1845,-7.88326 c -3.06944,0 -4.31064,-3.47199 -4.31064,-6.20597 0,-2.46562 1.35861,-6.47434 4.31064,-6.45757 3.13653,0 4.34418,3.50554 4.34418,6.23952 0,2.49916 -1.37538,6.42402 -4.34418,6.42402 z"
       style="font-style:normal;font-variant:normal;font-weight:normal;font-stretch:normal;font-size:34.3509px;line-height:1.25;font-family:Gayathri;-inkscape-font-specification:'Gayathri, Normal';font-variant-ligatures:normal;font-variant-caps:normal;font-variant-numeric:normal;font-variant-east-asian:normal;fill:#ffffff;fill-opacity:1;stroke:none;stroke-width:0.858773"
       id="path1241" />
    <path
       d="m 622.42155,580.47117 c -0.75478,0 -1.3586,0.33546 -1.3586,0.75478 v 21.25126 c 0,0.41933 0.60382,0.75478 1.3586,0.75478 h 7.81617 c 6.65885,0 10.38243,-5.14928 10.36566,-11.33848 0,-6.13888 -3.72359,-11.42234 -10.36566,-11.42234 z m 7.81617,1.52633 c 5.1996,0 7.64845,5.3841 7.64845,9.89601 0.0168,4.56223 -2.43207,9.81215 -7.64845,9.81215 h -6.44079 V 581.9975 Z"
       style="font-style:normal;font-variant:normal;font-weight:normal;font-stretch:normal;font-size:34.3509px;line-height:1.25;font-family:Gayathri;-inkscape-font-specification:'Gayathri, Normal';font-variant-ligatures:normal;font-variant-caps:normal;font-variant-numeric:normal;font-variant-east-asian:normal;fill:#ffffff;fill-opacity:1;stroke:none;stroke-width:0.858773"
       id="path1243" />
    <path
       d="m 644.20955,581.54464 c -0.83864,0 -1.50956,0.67091 -1.50956,1.50956 0,0.83864 0.67092,1.50956 1.50956,1.50956 0.83865,0 1.50956,-0.67092 1.50956,-1.50956 0,-0.83865 -0.67091,-1.50956 -1.50956,-1.50956 z m -1.37538,5.66924 v 15.64911 c 0,0.41932 0.6206,0.77155 1.37538,0.77155 0.75478,0 1.37538,-0.35223 1.37538,-0.77155 v -15.64911 c 0,-0.41933 -0.6206,-0.75479 -1.37538,-0.75479 -0.75478,0 -1.37538,0.33546 -1.37538,0.75479 z"
       style="font-style:normal;font-variant:normal;font-weight:normal;font-stretch:normal;font-size:34.3509px;line-height:1.25;font-family:Gayathri;-inkscape-font-specification:'Gayathri, Normal';font-variant-ligatures:normal;font-variant-caps:normal;font-variant-numeric:normal;font-variant-east-asian:normal;fill:#ffffff;fill-opacity:1;stroke:none;stroke-width:0.858773"
       id="path1245" />
    <path
       d="m 649.57688,580.8234 v 22.05636 c 0,0.41933 0.60382,0.75478 1.37538,0.75478 0.75478,0 1.3586,-0.33545 1.3586,-0.75478 V 580.8234 c 0,-0.41932 -0.60382,-0.75478 -1.3586,-0.75478 -0.77156,0 -1.37538,0.33546 -1.37538,0.75478 z"
       style="font-style:normal;font-variant:normal;font-weight:normal;font-stretch:normal;font-size:34.3509px;line-height:1.25;font-family:Gayathri;-inkscape-font-specification:'Gayathri, Normal';font-variant-ligatures:normal;font-variant-caps:normal;font-variant-numeric:normal;font-variant-east-asian:normal;fill:#ffffff;fill-opacity:1;stroke:none;stroke-width:0.858773"
       id="path1247" />
    <path
       d="m 657.67819,581.54464 c -0.83865,0 -1.50956,0.67091 -1.50956,1.50956 0,0.83864 0.67091,1.50956 1.50956,1.50956 0.83864,0 1.50956,-0.67092 1.50956,-1.50956 0,-0.83865 -0.67092,-1.50956 -1.50956,-1.50956 z m -1.37538,5.66924 v 15.64911 c 0,0.41932 0.6206,0.77155 1.37538,0.77155 0.75478,0 1.37538,-0.35223 1.37538,-0.77155 v -15.64911 c 0,-0.41933 -0.6206,-0.75479 -1.37538,-0.75479 -0.75478,0 -1.37538,0.33546 -1.37538,0.75479 z"
       style="font-style:normal;font-variant:normal;font-weight:normal;font-stretch:normal;font-size:34.3509px;line-height:1.25;font-family:Gayathri;-inkscape-font-specification:'Gayathri, Normal';font-variant-ligatures:normal;font-variant-caps:normal;font-variant-numeric:normal;font-variant-east-asian:normal;fill:#ffffff;fill-opacity:1;stroke:none;stroke-width:0.858773"
       id="path1249" />
    <path
       d="m 670.37527,603.63454 c 5.11574,0 8.25227,-3.72358 8.25227,-8.58772 0,-4.86414 -3.13653,-8.58773 -8.25227,-8.58773 -2.43207,0 -4.52868,1.10702 -5.51828,2.51594 v -1.77793 c 0,-0.41932 -0.60382,-0.75478 -1.35861,-0.75478 -0.75478,0 -1.37537,0.33546 -1.37537,0.75478 v 22.05637 c 0,0.41932 0.62059,0.75478 1.37537,0.75478 0.75479,0 1.35861,-0.33546 1.35861,-0.75478 v -8.13486 c 0.9896,1.40892 3.08621,2.51593 5.51828,2.51593 z m 0,-1.52633 c -3.72358,0 -5.51828,-3.80745 -5.51828,-7.06139 0,-3.25394 1.7947,-7.06139 5.51828,-7.06139 3.72359,0 5.51829,3.80745 5.51829,7.06139 0,3.25394 -1.7947,7.06139 -5.51829,7.06139 z"
       style="font-style:normal;font-variant:normal;font-weight:normal;font-stretch:normal;font-size:34.3509px;line-height:1.25;font-family:Gayathri;-inkscape-font-specification:'Gayathri, Normal';font-variant-ligatures:normal;font-variant-caps:normal;font-variant-numeric:normal;font-variant-east-asian:normal;fill:#ffffff;fill-opacity:1;stroke:none;stroke-width:0.858773"
       id="path1251" />
    <path
       d="m 430.08023,360.23578 v -41.09375 c 0,-0.78125 -1.125,-1.40625 -2.53125,-1.40625 -1.4375,0 -2.5625,0.625 -2.5625,1.40625 v 41.09375 c 0,0.78125 1.125,1.40625 2.5625,1.40625 1.40625,0 2.53125,-0.625 2.53125,-1.40625 z"
       style="font-style:normal;font-variant:normal;font-weight:normal;font-stretch:normal;font-size:64px;line-height:1.25;font-family:Gayathri;-inkscape-font-specification:'Gayathri, Normal';font-variant-ligatures:normal;font-variant-caps:normal;font-variant-numeric:normal;font-variant-east-asian:normal;fill:#ffffff;fill-opacity:1;stroke:none"
       id="path1138" />
    <path
       d="m 460.95523,361.67328 c 1.40625,0 2.5625,-0.65625 2.5625,-1.4375 v -16.5625 c 0,-9.3125 -7,-14.09375 -13.65625,-14.0625 -4,0 -8.0625,1.53125 -10,5 v -3.53125 c 0,-0.78125 -1.125,-1.4375 -2.53125,-1.4375 -1.40625,0 -2.5625,0.65625 -2.5625,1.4375 v 29.15625 c 0,0.78125 1.15625,1.4375 2.5625,1.4375 1.40625,0 2.53125,-0.65625 2.53125,-1.4375 v -15.65625 c 0,-8 4.34375,-12.03125 9.5625,-12.03125 6.125,0 9,5.6875 9,11.125 v 16.5625 c 0,0.78125 1.125,1.4375 2.53125,1.4375 z"
       style="font-style:normal;font-variant:normal;font-weight:normal;font-stretch:normal;font-size:64px;line-height:1.25;font-family:Gayathri;-inkscape-font-specification:'Gayathri, Normal';font-variant-ligatures:normal;font-variant-caps:normal;font-variant-numeric:normal;font-variant-east-asian:normal;fill:#ffffff;fill-opacity:1;stroke:none"
       id="path1140" />
    <path
       d="m 496.14273,361.64203 c 0.46875,0 1.3125,-0.0937 2,-0.375 0.625,-0.25 1.125,-0.625 1.125,-1.1875 0,-0.21875 -0.125,-0.4375 -0.3125,-0.65625 l -15.34375,-16.59375 13.46875,-11.53125 c 0.21875,-0.1875 0.3125,-0.375 0.3125,-0.53125 0,-0.46875 -0.625,-0.84375 -1.125,-0.96875 -0.3125,-0.0937 -0.71875,-0.15625 -1.125,-0.15625 -0.6875,0 -1.40625,0.15625 -1.84375,0.5625 l -18.46875,15.78125 v -26.84375 c 0,-0.78125 -1.125,-1.40625 -2.53125,-1.40625 -1.40625,0 -2.5625,0.625 -2.5625,1.40625 v 41.0625 c 0,0.8125 1.15625,1.4375 2.5625,1.4375 1.40625,0 2.53125,-0.625 2.53125,-1.4375 v -9.875 l 4.9375,-4.21875 13.5,14.625 c 0.59375,0.65625 1.8125,0.90625 2.875,0.90625 z"
       style="font-style:normal;font-variant:normal;font-weight:normal;font-stretch:normal;font-size:64px;line-height:1.25;font-family:Gayathri;-inkscape-font-specification:'Gayathri, Normal';font-variant-ligatures:normal;font-variant-caps:normal;font-variant-numeric:normal;font-variant-east-asian:normal;fill:#ffffff;fill-opacity:1;stroke:none"
       id="path1142" />
    <path
       d="m 515.04898,361.64203 c 5.8125,0 13.28125,-2.90625 13.28125,-9.625 0,-2.90625 -1.28125,-4.9375 -3.6875,-6.5 -2.84375,-1.84375 -5.9375,-2.15625 -8.90625,-2.59375 -1.15625,-0.1875 -3.25,-0.59375 -5.03125,-1.3125 -1.40625,-0.5625 -3.28125,-1.625 -3.28125,-3.34375 0,-3.90625 4.34375,-5.78125 7.71875,-5.78125 3.5,0 6.40625,1.90625 7.28125,5.4375 0.1875,0.8125 1.34375,1.1875 2.5,1.1875 1.28125,0 2.5625,-0.46875 2.5625,-1.3125 0,-0.21875 -0.0625,-0.4375 -0.15625,-0.75 -1.5625,-5.21875 -7.0625,-7.40625 -12.1875,-7.40625 -5.1875,0 -12.8125,2.5 -12.8125,8.71875 0,2.78125 1.53125,5.0625 3.78125,6.59375 2.78125,1.875 6,2.125 9.09375,2.5625 1.25,0.1875 3.375,0.5625 5.125,1.34375 1.375,0.59375 2.9375,1.65625 2.9375,3.34375 0,4.28125 -4.46875,6.59375 -8.21875,6.59375 -4.15625,0 -7.3125,-2.3125 -8.40625,-6.46875 -0.21875,-0.84375 -1.34375,-1.21875 -2.46875,-1.21875 -0.84375,0 -2.59375,0.25 -2.59375,1.375 0,0.25 0.0625,0.5625 0.125,0.84375 1.21875,6.03125 7.71875,8.3125 13.34375,8.3125 z"
       style="font-style:normal;font-variant:normal;font-weight:normal;font-stretch:normal;font-size:64px;line-height:1.25;font-family:Gayathri;-inkscape-font-specification:'Gayathri, Normal';font-variant-ligatures:normal;font-variant-caps:normal;font-variant-numeric:normal;font-variant-east-asian:normal;fill:#ffffff;fill-opacity:1;stroke:none"
       id="path1145" />
    <path
       d="m 559.67398,350.20453 c -1.3125,0 -2.40625,0.5625 -2.53125,1.28125 -0.78125,4.34375 -5.21875,7.3125 -9.5,7.3125 -7.375,0 -11.09375,-6.1875 -11.09375,-12.96875 0,-6.875 3.71875,-13.34375 11.28125,-13.34375 4.28125,0 8.625,2.78125 9.25,7.28125 0.0937,0.75 1.21875,1.3125 2.53125,1.3125 0.84375,0 2.53125,-0.375 2.53125,-1.4375 0,-1.3125 -1.03125,-3.46875 -1.78125,-4.46875 -2.71875,-3.75 -8.03125,-5.53125 -12.59375,-5.53125 -9.75,0 -16.34375,6.375 -16.3125,16.1875 0,9.625 6.4375,15.8125 15.96875,15.8125 4.75,0 10.3125,-1.9375 13.125,-5.90625 0.65625,-0.9375 1.65625,-3.03125 1.65625,-4.1875 0,-0.96875 -1.78125,-1.34375 -2.53125,-1.34375 z"
       style="font-style:normal;font-variant:normal;font-weight:normal;font-stretch:normal;font-size:64px;line-height:1.25;font-family:Gayathri;-inkscape-font-specification:'Gayathri, Normal';font-variant-ligatures:normal;font-variant-caps:normal;font-variant-numeric:normal;font-variant-east-asian:normal;fill:#ffffff;fill-opacity:1;stroke:none"
       id="path1147" />
    <path
       d="m 595.01773,361.64203 c 0.8125,0 2.53125,-0.34375 2.53125,-1.4375 0,-0.34375 -0.21875,-0.6875 -0.6875,-0.96875 -0.78125,-0.46875 -1.28125,-1.09375 -1.625,-1.8125 -0.5,-1.125 -0.59375,-2.4375 -0.59375,-3.65625 v -13.71875 c 0,-7.53125 -7.40625,-10.40625 -13.84375,-10.40625 -3.65625,0 -7.125,0.9375 -9.6875,2.65625 -2.4375,1.625 -4.03125,3.96875 -4.0625,6.34375 0,0.78125 1.125,1.4375 2.53125,1.4375 1.40625,0 2.53125,-0.65625 2.53125,-1.4375 0,-1.6875 1.15625,-3.375 2.875,-4.5 1.625,-1.0625 3.71875,-1.65625 5.8125,-1.65625 4.6875,0 8.75,2.46875 8.75,7.5625 v 3.15625 c -1.34375,0.84375 -3.4375,1.03125 -5.5625,1.03125 -1.75,0 -3.5,-0.125 -4.84375,-0.125 -4.03125,0 -8.625,0.46875 -11.15625,3.21875 -1.375,1.5 -1.875,3.375 -1.875,5.375 0,3.34375 1.8125,5.625 4.34375,7.03125 2.375,1.34375 5.34375,1.90625 8.09375,1.90625 3.9375,0 9.03125,-1.53125 11.625,-4.46875 0.59375,2.25 2.34375,4.46875 4.84375,4.46875 z m -16.46875,-2.84375 c -2,0 -3.875,-0.5 -5.1875,-1.53125 -1.46875,-1.09375 -2.1875,-2.875 -2.21875,-4.65625 0,-1.0625 0.25,-2.15625 0.78125,-3.09375 1.375,-2.46875 4.46875,-2.625 6.96875,-2.59375 1.90625,0 3.8125,0.15625 5.75,0.15625 1.65625,0 3.3125,-0.0937 4.90625,-0.4375 v 3.5625 c 0,5.5625 -6.09375,8.59375 -11,8.59375 z"
       style="font-style:normal;font-variant:normal;font-weight:normal;font-stretch:normal;font-size:64px;line-height:1.25;font-family:Gayathri;-inkscape-font-specification:'Gayathri, Normal';font-variant-ligatures:normal;font-variant-caps:normal;font-variant-numeric:normal;font-variant-east-asian:normal;fill:#ffffff;fill-opacity:1;stroke:none"
       id="path1149" />
    <path
       d="m 616.83023,361.64203 c 9.53125,0 15.375,-6.9375 15.375,-16 0,-9.0625 -5.84375,-16 -15.375,-16 -4.53125,0 -8.4375,2.0625 -10.28125,4.6875 v -3.3125 c 0,-0.78125 -1.125,-1.40625 -2.53125,-1.40625 -1.40625,0 -2.5625,0.625 -2.5625,1.40625 v 41.09375 c 0,0.78125 1.15625,1.40625 2.5625,1.40625 1.40625,0 2.53125,-0.625 2.53125,-1.40625 v -15.15625 c 1.84375,2.625 5.75,4.6875 10.28125,4.6875 z m 0,-2.84375 c -6.9375,0 -10.28125,-7.09375 -10.28125,-13.15625 0,-6.0625 3.34375,-13.15625 10.28125,-13.15625 6.9375,0 10.28125,7.09375 10.28125,13.15625 0,6.0625 -3.34375,13.15625 -10.28125,13.15625 z"
       style="font-style:normal;font-variant:normal;font-weight:normal;font-stretch:normal;font-size:64px;line-height:1.25;font-family:Gayathri;-inkscape-font-specification:'Gayathri, Normal';font-variant-ligatures:normal;font-variant-caps:normal;font-variant-numeric:normal;font-variant-east-asian:normal;fill:#ffffff;fill-opacity:1;stroke:none"
       id="path1151" />
    <path
       d="m 651.58023,361.64203 c 3.8125,0 7.84375,-1 11.03125,-3.125 1.90625,-1.25 3.3125,-2.8125 4.125,-4.5 0.3125,-0.65625 0.6875,-1.71875 0.6875,-2.4375 0,-1.0625 -1.78125,-1.40625 -2.5625,-1.40625 -1.34375,0 -2.40625,0.59375 -2.5,1.34375 -0.1875,1.90625 -1.5625,3.75 -3.65625,5.15625 -2.0625,1.40625 -4.625,2.125 -7.09375,2.125 -7.25,0 -11.21875,-6.40625 -11.21875,-13.0625 h 25.09375 c 1.125,0 2.53125,-0.375 2.53125,-1.6875 0,-9.4375 -7.21875,-14.40625 -16.1875,-14.40625 -9.5625,0 -16.5,6.59375 -16.5,16.25 0,9.53125 6.875,15.75 16.25,15.75 z m 11.3125,-18.78125 h -22.21875 c 1.0625,-5.625 5.09375,-10.375 11.15625,-10.375 6.375,0 10.59375,4.125 11.0625,10.375 z"
       style="font-style:normal;font-variant:normal;font-weight:normal;font-stretch:normal;font-size:64px;line-height:1.25;font-family:Gayathri;-inkscape-font-specification:'Gayathri, Normal';font-variant-ligatures:normal;font-variant-caps:normal;font-variant-numeric:normal;font-variant-east-asian:normal;fill:#ffffff;fill-opacity:1;stroke:none"
       id="path1153" />
    <path
       d="m 698.79898,361.64203 c 1.4375,0 2.5625,-0.65625 2.5625,-1.46875 v -41 c 0,-0.78125 -1.125,-1.4375 -2.5625,-1.4375 -0.875,0 -2.4375,0.375 -2.59375,1.46875 -0.375,2.78125 -1.4375,4.90625 -2.84375,6.4375 -1.4375,1.59375 -3.15625,2.46875 -4.6875,2.6875 -0.6875,0.0937 -1.90625,0.5625 -1.90625,1.40625 0,1.03125 1.625,1.375 2.65625,1.375 2.75,0 5.03125,-1.15625 6.84375,-2.6875 v 31.75 c 0,0.8125 1.125,1.46875 2.53125,1.46875 z"
       style="font-style:normal;font-variant:normal;font-weight:normal;font-stretch:normal;font-size:64px;line-height:1.25;font-family:Gayathri;-inkscape-font-specification:'Gayathri, Normal';font-variant-ligatures:normal;font-variant-caps:normal;font-variant-numeric:normal;font-variant-east-asian:normal;fill:#ffffff;fill-opacity:1;stroke:none"
       id="path1155" />
    <path
       d="m 710.95523,354.17328 c -1.84375,0 -3.34375,1.5 -3.34375,3.34375 0,1.875 1.5,3.375 3.34375,3.375 1.875,0 3.375,-1.5 3.375,-3.375 0,-1.84375 -1.5,-3.34375 -3.375,-3.34375 z"
       style="font-style:normal;font-variant:normal;font-weight:normal;font-stretch:normal;font-size:64px;line-height:1.25;font-family:Gayathri;-inkscape-font-specification:'Gayathri, Normal';font-variant-ligatures:normal;font-variant-caps:normal;font-variant-numeric:normal;font-variant-east-asian:normal;fill:#ffffff;fill-opacity:1;stroke:none"
       id="path1157" />
    <path
       d="m 731.04898,361.64203 c 1.4375,0 2.5625,-0.65625 2.5625,-1.46875 v -41 c 0,-0.78125 -1.125,-1.4375 -2.5625,-1.4375 -0.875,0 -2.4375,0.375 -2.59375,1.46875 -0.375,2.78125 -1.4375,4.90625 -2.84375,6.4375 -1.4375,1.59375 -3.15625,2.46875 -4.6875,2.6875 -0.6875,0.0937 -1.90625,0.5625 -1.90625,1.40625 0,1.03125 1.625,1.375 2.65625,1.375 2.75,0 5.03125,-1.15625 6.84375,-2.6875 v 31.75 c 0,0.8125 1.125,1.46875 2.53125,1.46875 z"
       style="font-style:normal;font-variant:normal;font-weight:normal;font-stretch:normal;font-size:64px;line-height:1.25;font-family:Gayathri;-inkscape-font-specification:'Gayathri, Normal';font-variant-ligatures:normal;font-variant-caps:normal;font-variant-numeric:normal;font-variant-east-asian:normal;fill:#ffffff;fill-opacity:1;stroke:none"
       id="path1159" />
    <text
       xml:space="preserve"
       style="font-style:normal;font-weight:normal;font-size:40px;line-height:1.25;font-family:sans-serif;fill:#000000;fill-opacity:1;stroke:none"
       x="710.73901"
       y="438.05737"
       id="text194"><tspan
         sodipodi:role="line"
         id="tspan192"
         x="710.73901"
         y="438.05737">.</tspan></text>
  </g>
  <g
     inkscape:groupmode="layer"
     id="layer1"
     inkscape:label="fonts as text"
     style="display:none">
    <text
       xml:space="preserve"
       style="font-style:normal;font-variant:normal;font-weight:normal;font-stretch:normal;font-size:48px;line-height:1.25;font-family:Gayathri;-inkscape-font-specification:'Gayathri, Normal';font-variant-ligatures:normal;font-variant-caps:normal;font-variant-numeric:normal;font-variant-east-asian:normal;fill:#1a1a1a;fill-opacity:1;stroke:none"
       x="460.36395"
       y="430.97656"
       id="text1114"
       inkscape:export-xdpi="96"
       inkscape:export-ydpi="96"><tspan
         sodipodi:role="line"
         id="tspan1112"
         x="460.36395"
         y="430.97656"
         style="font-style:normal;font-variant:normal;font-weight:normal;font-stretch:normal;font-size:48px;font-family:Gayathri;-inkscape-font-specification:'Gayathri, Normal';font-variant-ligatures:normal;font-variant-caps:normal;font-variant-numeric:normal;font-variant-east-asian:normal;fill:#1a1a1a">Draw Freely.</tspan></text>
    <text
       xml:space="preserve"
       style="font-style:normal;font-variant:normal;font-weight:normal;font-stretch:normal;font-size:40px;line-height:1.25;font-family:Gayathri;-inkscape-font-specification:'Gayathri, Normal';font-variant-ligatures:normal;font-variant-caps:normal;font-variant-numeric:normal;font-variant-east-asian:normal;fill:#cccccc;fill-opacity:1;stroke:none"
       x="527.61292"
       y="533.1532"
       id="text1118"
       inkscape:export-xdpi="96"
       inkscape:export-ydpi="96"
       transform="translate(0,-2.3053493)"><tspan
         sodipodi:role="line"
         id="tspan1116"
         x="527.61292"
         y="533.1532"
         style="font-style:normal;font-variant:normal;font-weight:normal;font-stretch:normal;font-size:40px;font-family:Gayathri;-inkscape-font-specification:'Gayathri, Normal';font-variant-ligatures:normal;font-variant-caps:normal;font-variant-numeric:normal;font-variant-east-asian:normal;fill:#cccccc">Inkscape.org</tspan></text>
    <text
       xml:space="preserve"
       style="font-style:normal;font-variant:normal;font-weight:normal;font-stretch:normal;font-size:34.3509px;line-height:1.25;font-family:Gayathri;-inkscape-font-specification:'Gayathri, Normal';font-variant-ligatures:normal;font-variant-caps:normal;font-variant-numeric:normal;font-variant-east-asian:normal;fill:#ffffff;fill-opacity:1;stroke:none;stroke-width:0.858773"
       x="586.72882"
       y="603.23199"
       id="text1122"
       inkscape:export-xdpi="96"
       inkscape:export-ydpi="96"
       transform="translate(0,-2.3053493)"><tspan
         sodipodi:role="line"
         id="tspan1120"
         x="586.72882"
         y="603.23199"
         style="font-style:normal;font-variant:normal;font-weight:normal;font-stretch:normal;font-size:34.3509px;font-family:Gayathri;-inkscape-font-specification:'Gayathri, Normal';font-variant-ligatures:normal;font-variant-caps:normal;font-variant-numeric:normal;font-variant-east-asian:normal;fill:#ffffff;stroke-width:0.858773">@Dilip</tspan></text>
    <text
       xml:space="preserve"
       style="font-style:normal;font-variant:normal;font-weight:normal;font-stretch:normal;font-size:64px;line-height:1.25;font-family:Gayathri;-inkscape-font-specification:'Gayathri, Normal';font-variant-ligatures:normal;font-variant-caps:normal;font-variant-numeric:normal;font-variant-east-asian:normal;fill:#ffffff;fill-opacity:1;stroke:none"
       x="423.42398"
       y="360.89203"
       id="text1126"
       inkscape:export-xdpi="96"
       inkscape:export-ydpi="96"
       transform="translate(0,-2.3053493)"><tspan
         sodipodi:role="line"
         id="tspan1124"
         x="423.42398"
         y="360.89203"
         style="font-style:normal;font-variant:normal;font-weight:normal;font-stretch:normal;font-size:64px;font-family:Gayathri;-inkscape-font-specification:'Gayathri, Normal';font-variant-ligatures:normal;font-variant-caps:normal;font-variant-numeric:normal;font-variant-east-asian:normal;fill:#ffffff">Inkscape 1.1</tspan></text>
  </g>
  <style
     type="text/css"
     id="style26">
	.specularity {opacity:0.5;}
	.low-specularity {opacity:0.25;}
	.full-specularity {opacity:1;}
	.black {fill:#000000;}
	.white {fill:#ffffff;}
	.outline-big {stroke-width:16;stroke:none;opacity:0.1;fill:none;}
	.outline-small {stroke-width:8;stroke:none;opacity:0.2;fill:none;}
	.stroke-highlight {fill:none;stroke:none;opacity:0.2;}
       	.base-shadow 	{fill:black;opacity:75;}
	</style>
  <style
     type="text/css"
     id="style26-5">
	.specularity {opacity:0.5;}
	.low-specularity {opacity:0.25;}
	.full-specularity {opacity:1;}
	.black {fill:#000000;}
	.white {fill:#ffffff;}
	.outline-big {stroke-width:16;stroke:none;opacity:0.1;fill:none;}
	.outline-small {stroke-width:8;stroke:none;opacity:0.2;fill:none;}
	.stroke-highlight {fill:none;stroke:none;opacity:0.2;}
       	.base-shadow 	{fill:black;opacity:75;}
	</style>
  <style
     type="text/css"
     id="style26-6">
	.specularity {opacity:0.5;}
	.low-specularity {opacity:0.25;}
	.full-specularity {opacity:1;}
	.black {fill:#000000;}
	.white {fill:#ffffff;}
	.outline-big {stroke-width:16;stroke:none;opacity:0.1;fill:none;}
	.outline-small {stroke-width:8;stroke:none;opacity:0.2;fill:none;}
	.stroke-highlight {fill:none;stroke:none;opacity:0.2;}
       	.base-shadow 	{fill:black;opacity:75;}
	</style>
</svg>
