<?xml version="1.0" encoding="UTF-8" standalone="no"?>
<svg
   xmlns:dc="http://purl.org/dc/elements/1.1/"
   xmlns:cc="http://creativecommons.org/ns#"
   xmlns:rdf="http://www.w3.org/1999/02/22-rdf-syntax-ns#"
   xmlns:svg="http://www.w3.org/2000/svg"
   xmlns="http://www.w3.org/2000/svg"
   xmlns:sodipodi="http://sodipodi.sourceforge.net/DTD/sodipodi-0.dtd"
   xmlns:inkscape="http://www.inkscape.org/namespaces/inkscape"
   sodipodi:docname="generate.2.svg"
   inkscape:version="1.0alpha (e2b62a335e, 2019-05-24, custom)"
   id="svg8"
   version="1.1"
   viewBox="0 0 1000 1000"
   height="1000"
   width="1000">
  <style
     id="style846"></style>
  <defs
     id="defs2">
    <inkscape:path-effect
       split_items="false"
       oposite_fuse="false"
       fuse_paths="true"
       discard_orig_path="false"
       split_gap="-0.001"
       mode="Y"
       is_visible="true"
       id="path-effect1327"
       center_point="279.36068,361.68828"
       end_point="679.61034,361.68828"
       start_point="-120.88897,361.68828"
       effect="mirror_symmetry" />
    <inkscape:path-effect
       split_items="false"
       oposite_fuse="true"
       fuse_paths="true"
       discard_orig_path="false"
       split_gap="-0.001"
       mode="free"
       is_visible="true"
       id="path-effect1325"
       center_point="279.401,366.53656"
       end_point="278.01422,614.14188"
       start_point="281.39739,118.93123"
       effect="mirror_symmetry" />
    <inkscape:path-effect
       split_items="false"
       oposite_fuse="false"
       fuse_paths="true"
       discard_orig_path="false"
       split_gap="-0.001"
       mode="free"
       is_visible="true"
       id="path-effect1323"
       center_point="379.49383,317.15455"
       end_point="311.7272,450.40361"
       start_point="445.16425,180.76784"
       effect="mirror_symmetry" />
    <inkscape:path-effect
       split_items="false"
       oposite_fuse="false"
       fuse_paths="true"
       discard_orig_path="false"
       split_gap="-0.001"
       mode="free"
       is_visible="true"
       id="path-effect1321"
       center_point="258.51689,284.8154"
       end_point="256.45725,451.62652"
       start_point="256.45725,119.80134"
       effect="mirror_symmetry" />
    <inkscape:path-effect
       split_items="false"
       oposite_fuse="false"
       fuse_paths="true"
       discard_orig_path="false"
       split_gap="-0.001"
       mode="free"
       is_visible="true"
       id="path-effect1319"
       center_point="246.226,285.60752"
       end_point="251.40391,451.52011"
       start_point="251.40391,119.69493"
       effect="mirror_symmetry" />
    <inkscape:path-effect
       split_items="false"
       oposite_fuse="false"
       fuse_paths="false"
       discard_orig_path="false"
       split_gap="-0.001"
       mode="free"
       is_visible="true"
       id="path-effect1315"
       center_point="447.38665,200.01578"
       end_point="447.75551,343.06325"
       start_point="447.75551,56.96831"
       effect="mirror_symmetry" />
    <inkscape:path-effect
       split_items="false"
       oposite_fuse="false"
       fuse_paths="true"
       discard_orig_path="false"
       split_gap="-0.001"
       mode="free"
       is_visible="true"
       id="path-effect1310"
       center_point="278.92877,231.78026"
       end_point="236.93468,340.11184"
       start_point="319.98847,123.44868"
       effect="mirror_symmetry" />
    <inkscape:path-effect
       split_items="false"
       oposite_fuse="false"
       fuse_paths="true"
       discard_orig_path="false"
       split_gap="-0.001"
       mode="free"
       is_visible="true"
       id="path-effect1302"
       center_point="425.28627,319.80599"
       end_point="317.89203,545.09811"
       start_point="532.0286,94.513866"
       effect="mirror_symmetry" />
    <inkscape:path-effect
       split_items="false"
       oposite_fuse="true"
       fuse_paths="true"
       discard_orig_path="false"
       split_gap="-0.001"
       mode="free"
       is_visible="true"
       id="path-effect1300"
       center_point="344.9889,285.52483"
       end_point="338.6607,549.79701"
       start_point="338.6607,21.252655"
       effect="mirror_symmetry" />
    <inkscape:path-effect
       split_items="false"
       oposite_fuse="false"
       fuse_paths="true"
       discard_orig_path="false"
       split_gap="-0.001"
       mode="Y"
       is_visible="true"
       id="path-effect1298"
       center_point="487.9274,294.54373"
       end_point="839.68458,295.58511"
       start_point="-35.958499,295.58511"
       effect="mirror_symmetry" />
    <inkscape:path-effect
       split_items="false"
       oposite_fuse="false"
       fuse_paths="true"
       discard_orig_path="false"
       split_gap="-0.001"
       mode="free"
       is_visible="true"
       id="path-effect1296"
       center_point="368.19469,291.27769"
       end_point="321.00724,479.73875"
       start_point="423.81974,105.98074"
       effect="mirror_symmetry" />
    <inkscape:path-effect
       split_items="true"
       mirror_copies="true"
       copies_to_360="true"
       gap="0"
       rotation_angle="60"
       starting_angle="-0.90183698"
       num_copies="6"
       method="fuse_paths"
       is_visible="true"
       id="path-effect851"
       origin="58.978874,223.63966"
       starting_point="237.40159,221.07783"
       effect="copy_rotate" />
  </defs>
  <sodipodi:namedview
     inkscape:guide-bbox="true"
     showguides="true"
     inkscape:snap-text-baseline="true"
     id="base"
     pagecolor="#ff4bb1"
     bordercolor="#666666"
     borderopacity="1.0"
     inkscape:pageopacity="1"
     inkscape:pageshadow="2"
     inkscape:zoom="0.94813656"
     inkscape:cx="379.76617"
     inkscape:cy="335.84098"
     inkscape:document-units="px"
     inkscape:current-layer="layer1"
     inkscape:document-rotation="0"
     showgrid="true"
     inkscape:snap-grids="true"
     inkscape:snap-others="true"
     inkscape:showpageshadow="false"
     borderlayer="true"
     objecttolerance="20"
     inkscape:window-width="1920"
     inkscape:window-height="1016"
     inkscape:window-x="0"
     inkscape:window-y="27"
     inkscape:window-maximized="1"
     inkscape:object-nodes="false"
     inkscape:snap-nodes="false"
     inkscape:snap-bbox="true"
     inkscape:bbox-nodes="true"
     inkscape:pagecheckerboard="false"
     inkscape:snap-global="false"
     showborder="false"
     units="px">
    <inkscape:grid
       opacity="0.03137255"
       color="#3f3fff"
       empopacity="0.07058824"
       empcolor="#3f3fff"
       type="xygrid"
       id="grid10"
       units="mm"
       spacingx="1"
       spacingy="1"
       visible="false"
       enabled="false" />
    <sodipodi:guide
       id="guide883"
       orientation="0,-1"
       position="635.4095,1120.8173" />
    <sodipodi:guide
       id="guide885"
       orientation="1,0"
       position="1200.7151,889.6237" />
  </sodipodi:namedview>
  <metadata
     id="metadata5">
    <rdf:RDF>
      <cc:Work
         rdf:about="">
        <dc:format>image/svg+xml</dc:format>
        <dc:type
           rdf:resource="http://purl.org/dc/dcmitype/StillImage" />
        <dc:title></dc:title>
      </cc:Work>
    </rdf:RDF>
  </metadata>
  <g
     inkscape:label="Layer 1"
     inkscape:groupmode="layer"
     id="layer1">
    <text
       xml:space="preserve"
       style="font-size:40px;line-height:0%;font-family:sans-serif;letter-spacing:0px;word-spacing:0px"
       x="-599.73132"
       y="505.67505"
       id="text908"><tspan
         sodipodi:role="line"
         id="tspan906"
         x="-599.73132"
         y="505.67505" /></text>
    <ellipse
       style="opacity:0.108356;fill:#ffffff;fill-opacity:0.989034;stroke-width:55.251;stroke-linejoin:round"
       id="path963"
       cx="393.77075"
       cy="-175.43311"
       rx="215.34348"
       ry="153.0925" />
    <text
       xml:space="preserve"
       style="font-style:normal;font-variant:normal;font-weight:300;font-stretch:normal;font-size:41.5581px;line-height:1;font-family:Lato;-inkscape-font-specification:'Lato Light';text-align:center;letter-spacing:0px;word-spacing:0px;text-anchor:middle;fill:#ffffff;fill-opacity:0.563929;stroke-width:1.03895"
       x="396.74213"
       y="-51.298286"
       id="text926"><tspan
         id="tspan924"
         sodipodi:role="line"
         x="396.74213"
         y="-51.298286"
         style="fill:#ffffff;fill-opacity:0.563929;stroke-width:1.03895">SHAPE</tspan></text>
    <g
       style="display:none"
       id="rotated-5-path-effect851"
       transform="matrix(0.34028704,0.42670645,-0.42670645,0.34028704,615.61454,432.49836)">
      <path
         inkscape:connector-curvature="0"
         d="M 165.46988,35.093914 28.982834,170.43246 c -46.269088,55.48862 30.104398,50.15003 62.545527,66.85271 11.539829,12.17313 -45.282439,20.12977 -33.742764,32.31291 11.539831,12.17314 70.557633,24.21353 82.117463,36.38698 11.53983,12.17314 -24.39595,24.32904 -12.85611,36.50218 11.53983,12.17314 38.84527,1.24155 43.48897,28.99808 3.30823,19.83453 48.75016,9.26844 71.1424,-6.58108 11.91742,-11.81389 -22.26614,-11.22184 -10.34887,-23.02574 29.63589,-29.36718 56.49363,-9.95205 66.94285,-39.68127 5.16186,-14.69058 -42.5763,-23.44303 -30.63904,-35.24661 34.05604,-19.17635 150.89353,-30.16877 96.42156,-86.38308 L 227.06225,36.063459 C 210.2917,19.447443 181.87806,18.820152 165.46988,35.093914 Z M 315.59015,302.46983 c -0.10734,6.81916 50.06608,12.07951 50.26912,-0.81889 -6.833,-20.83013 -44.00043,-20.01502 -50.26912,0.81889 z M 88.687795,335.14258 c 11.736565,10.47602 30.316545,-2.0831 36.051875,-16.35459 -11.28744,-15.49958 -54.69188,-0.31086 -36.051875,16.35459 z M 309.07042,316.37894 c -15.55467,13.51685 1.28349,27.74364 16.54154,19.09272 3.42341,-3.36654 0.15256,-15.40951 -16.54154,-19.09272 z"
         id="path923"
         style="fill:#702270;fill-opacity:1;stroke:none" />
      <path
         inkscape:connector-curvature="0"
         d="m 130.00648,245.33178 c 3.55446,2.28623 57.67412,14.16951 70.90785,16.5781 4.58417,1.04228 1.24997,5.73039 -5.13961,8.8302 -14.35804,3.57446 -83.26607,-25.68373 -65.76824,-25.4083 z"
         id="path925"
         style="fill:#ffffff" />
      <path
         inkscape:connector-curvature="0"
         d="m 218.79153,45.574461 52.29381,54.809859 c 4.95832,5.22869 4.73124,15.20635 1.86642,18.03161 l -26.05447,-21.522745 -5.68137,31.174445 -21.86406,-11.98562 -35.65677,21.75148 -10.94833,-47.208164 -19.48422,32.517354 -28.99641,-0.45644 c -11.81853,-0.18604 -12.97227,-15.20606 -2.06456,-25.775685 19.0764,-19.952221 40.92859,-40.250796 52.81539,-52.025164 11.94773,-11.833416 32.42984,-11.170958 43.77457,0.68907 z"
         id="path927"
         style="fill:#e3dbdb" />
    </g>
    <path
       transform="translate(89.521172,-8.2303195)"
       d="m 418.9489,441.76644 -5.64213,-1.93151 -0.37223,-5.95195 3.34864,3.68123 z m 0,-160.15632 -5.64213,1.93151 -0.37223,5.95195 3.34864,-3.68123 z m -279.50105,158.24683 5.66799,-1.85424 0.45352,-5.94631 -3.39863,3.63513 z m 0,-156.33734 5.66799,1.85424 0.45352,5.94631 -3.39863,-3.63513 z m 140.00779,119.63431 16.09849,-24.10375 -15.96831,5.04979 -15.89784,-5.26749 z m 0,-82.93128 16.09849,24.10375 -15.96831,-5.04979 -15.89784,5.26749 z m 111.96344,136.3106 31.77692,22.3421 -66.55392,4.18958 21.62418,-63.08226 z m 0,-189.68992 31.77692,-22.3421 -66.55392,-4.18958 21.62418,63.08226 z m -224.64574,188.15519 -32.07922,21.90585 66.49047,5.09851 -20.76027,-63.37182 z m 0,-186.62046 -32.07922,-21.90585 66.49047,-5.09851 -20.76027,63.37182 z m 393.86226,93.31023 -2.49556,2.83086 16.23805,-2.83086 -16.23805,-2.83086 z m 79.95349,0 -53.20594,26.06765 117.90349,26.37777 -99.77871,6.28109 98.83428,69.48959 -94.58717,-32.38069 64.71845,102.02225 -74.9956,-66.1128 20.74984,119.02295 -43.98663,-89.77984 -26.37777,117.90348 -6.28109,-99.7787 -69.48959,98.83428 32.38069,-94.58718 -102.02225,64.71846 66.1128,-74.9956 -119.02295,20.74983 89.77984,-43.98662 -94.33241,-21.10437 4.56801,-96.55637 -26.99571,30.5976 7.95233,-40.02176 -53.23527,44.74722 -52.61893,-45.4704 7.40477,40.12669 -26.57513,-30.96359 3.24834,96.60977 -94.61196,19.81354 L 205.2953,554.5217 86.566957,532.14761 151.64893,608.0395 50.520443,541.93316 81.605774,636.95393 13.473035,537.17944 5.8292653,636.86301 -18.935133,518.61014 l -45.209176,89.17047 22.374096,-118.72834 -75.891897,65.08197 66.10634,-101.12848 -95.02076,31.08533 99.774488,-68.13274 -99.683578,-7.64377 118.252879,-24.7644 -43.120359,-21.8619 43.120359,-21.8619 -118.252879,-24.7644 99.683578,-7.64377 -99.774488,-68.13274 95.02076,31.08533 -66.10634,-101.12848 75.891897,65.08197 -22.374096,-118.72834 45.209176,89.17047 L 5.8292653,86.513546 13.473035,186.19712 81.605774,86.422634 50.520443,181.4434 151.64893,115.33706 86.566957,191.22895 205.2953,168.85486 l -89.17048,45.20917 94.61196,19.81354 -3.24834,96.60977 26.57513,-30.96359 -7.40477,40.12669 52.61893,-45.4704 53.23527,44.74722 -7.95233,-40.02176 26.99571,30.5976 -4.56801,-96.55637 94.33241,-21.10437 -89.77984,-43.98662 119.02295,20.74983 -66.1128,-74.9956 102.02225,64.71846 -32.38069,-94.58718 69.48959,98.83428 6.28109,-99.778705 26.37777,117.903485 43.98663,-89.77984 -20.74984,119.02295 74.9956,-66.1128 -64.71845,102.02225 94.58717,-32.38069 -98.83428,69.48959 99.77871,6.28109 -117.90349,26.37777 z"
       inkscape:path-effect="#path-effect1321;#path-effect1323;#path-effect1325;#path-effect1327"
       inkscape:transform-center-y="-11.975837"
       inkscape:transform-center-x="4.2212082"
       inkscape:randomized="0"
       inkscape:rounded="0"
       inkscape:flatsided="false"
       sodipodi:arg2="0.71027151"
       sodipodi:arg1="0.83668916"
       sodipodi:r2="194.20893"
       sodipodi:r1="95.727837"
       sodipodi:cy="288.84735"
       sodipodi:cx="189.4286"
       sodipodi:sides="16"
       id="path1317"
       style="opacity:1;fill:none;fill-rule:evenodd;stroke:#ffffff;stroke-width:5.93279;stroke-linecap:square;stroke-miterlimit:4;stroke-dasharray:none;stroke-dashoffset:0;paint-order:stroke fill markers"
       sodipodi:type="star" />
  </g>
</svg>
