<?xml version="1.0" encoding="UTF-8" standalone="no"?>
<svg
   xmlns:dc="http://purl.org/dc/elements/1.1/"
   xmlns:cc="http://creativecommons.org/ns#"
   xmlns:rdf="http://www.w3.org/1999/02/22-rdf-syntax-ns#"
   xmlns:svg="http://www.w3.org/2000/svg"
   xmlns="http://www.w3.org/2000/svg"
   xmlns:sodipodi="http://sodipodi.sourceforge.net/DTD/sodipodi-0.dtd"
   xmlns:inkscape="http://www.inkscape.org/namespaces/inkscape"
   sodipodi:docname="REMARK.svg"
   inkscape:version="1.0alpha (b56b894b55, 2019-06-01, custom)"
   id="svg8"
   version="1.1"
   viewBox="0 0 21.07547 15"
   height="15mm"
   width="21.07547mm">
  <style
     id="style886"></style>
  <defs
     id="defs2" />
  <sodipodi:namedview
     inkscape:window-maximized="1"
     inkscape:window-y="27"
     inkscape:window-x="0"
     inkscape:window-height="704"
     inkscape:window-width="1360"
     fit-margin-bottom="0"
     fit-margin-right="0"
     fit-margin-left="0"
     fit-margin-top="0"
     showgrid="false"
     inkscape:document-rotation="0"
     inkscape:current-layer="layer1"
     inkscape:document-units="mm"
     inkscape:cy="110.08305"
     inkscape:cx="85.773758"
     inkscape:zoom="1.979899"
     inkscape:pageshadow="2"
     inkscape:pageopacity="0.0"
     borderopacity="1.0"
     bordercolor="#666666"
     pagecolor="#ffffff"
     id="base" />
  <metadata
     id="metadata5">
    <rdf:RDF>
      <cc:Work
         rdf:about="">
        <dc:format>image/svg+xml</dc:format>
        <dc:type
           rdf:resource="http://purl.org/dc/dcmitype/StillImage" />
        <dc:title></dc:title>
      </cc:Work>
    </rdf:RDF>
  </metadata>
  <g
     transform="translate(-53.742418,-54.226356)"
     id="layer1"
     inkscape:groupmode="layer"
     inkscape:label="Capa 1">
    <g
       id="text12"
       style="font-style:normal;font-variant:normal;font-weight:bold;font-stretch:normal;font-size:10.5833px;font-family:'Yanone Kaffeesatz';-inkscape-font-specification:'Yanone Kaffeesatz Bold';fill:#ffffff;fill-opacity:1;stroke:none;stroke-width:0.264583"
       aria-label="reamark"
       transform="matrix(0.75196994,0,0,0.75196994,15.94341,17.214069)">
      <path
         inkscape:connector-curvature="0"
         id="path14"
         style="font-style:normal;font-variant:normal;font-weight:bold;font-stretch:normal;font-family:'Yanone Kaffeesatz';-inkscape-font-specification:'Yanone Kaffeesatz Bold';fill:#ffffff;stroke-width:0.264583"
         d="m 53.742421,57.083847 v 4.921234 c 1.206496,0 1.206496,0 1.206496,-0.211666 l 0.01058,-3.884071 c 0.137583,-0.116416 0.328083,-0.169333 0.455082,-0.169333 0.105833,0 0.243416,0.01058 0.391582,0.08467 0.09525,-0.264583 0.116417,-0.550332 0.116417,-0.687915 0,-0.359832 -0.137583,-0.529165 -0.709081,-0.529165 -0.592665,0 -1.100664,0.22225 -1.471079,0.476249 z" />
      <path
         inkscape:connector-curvature="0"
         id="path16"
         style="font-style:normal;font-variant:normal;font-weight:bold;font-stretch:normal;font-family:'Yanone Kaffeesatz';-inkscape-font-specification:'Yanone Kaffeesatz Bold';fill:#ffffff;stroke-width:0.264583"
         d="m 57.949448,60.957335 c -0.507998,0 -0.656165,-0.296333 -0.687915,-0.973664 0.529165,-0.01058 1.31233,-0.04233 1.830911,-0.148166 0.105833,-0.412749 0.148166,-0.99483 0.148166,-1.502829 0,-1.227663 -0.507998,-1.725078 -1.354662,-1.725078 -0.99483,0 -1.862661,0.444499 -1.862661,3.005657 0,2.010827 0.677332,2.497659 1.640412,2.497659 0.825497,0 1.502828,-0.232832 1.502828,-0.656164 0,-0.243416 -0.03175,-0.582082 -0.09525,-0.793748 -0.370416,0.179916 -0.740831,0.296333 -1.121829,0.296333 z m -0.222249,-3.323157 c 0.264582,0 0.359832,0.105833 0.359832,0.783165 0,0.169332 -0.01058,0.423332 -0.05292,0.550331 -0.158749,0.07408 -0.486831,0.09525 -0.772581,0.09525 0.02117,-0.96308 0.148167,-1.428746 0.465666,-1.428746 z" />
      <path
         inkscape:connector-curvature="0"
         id="path20"
         style="font-style:normal;font-variant:normal;font-weight:bold;font-stretch:normal;font-family:'Yanone Kaffeesatz';-inkscape-font-specification:'Yanone Kaffeesatz Bold';fill:#ffffff;stroke-width:0.264583"
         d="m 63.42778,56.607598 c -0.412749,0 -0.878414,0.105833 -1.248829,0.275166 -0.201083,-0.179916 -0.486832,-0.275166 -0.878414,-0.275166 -0.634998,0 -1.227663,0.15875 -1.629828,0.349249 v 5.048234 c 1.153579,0 1.185329,0 1.185329,-0.211666 v -4.04282 c 0.116417,-0.07408 0.264583,-0.127 0.402166,-0.127 0.243415,0 0.296332,0.0635 0.296332,0.412749 v 3.968737 h 0.02117 c 0,0 0,0 0.01058,0 1.174746,0 1.15358,0 1.15358,-0.211666 v -4.053404 c 0.116416,-0.0635 0.243415,-0.09525 0.391582,-0.09525 0.243416,0 0.306915,0.105833 0.306915,0.433915 v 3.926404 c 1.142997,0 1.18533,0 1.18533,-0.211666 v -3.746488 c 0,-0.910164 -0.116416,-1.439329 -1.195913,-1.439329 z" />
      <path
         inkscape:connector-curvature="0"
         id="path22"
         style="font-style:normal;font-variant:normal;font-weight:bold;font-stretch:normal;font-family:'Yanone Kaffeesatz';-inkscape-font-specification:'Yanone Kaffeesatz Bold';fill:#ffffff;stroke-width:0.264583"
         d="m 65.156,57.28493 c 0,0.169332 0.03175,0.444498 0.158749,0.687914 0.349249,-0.127 0.878414,-0.222249 1.269996,-0.222249 0.328083,0 0.444499,0.116416 0.444499,0.391582 v 0.730247 c -0.1905,-0.126999 -0.518582,-0.158749 -0.677331,-0.158749 -0.624415,0 -1.21708,0.296332 -1.21708,1.746244 0,1.471079 0.719665,1.650995 1.502829,1.650995 0.634998,0 1.164163,-0.126999 1.523995,-0.338665 0.05292,-0.783165 0.05292,-2.158994 0.05292,-3.376073 v -0.497415 c 0,-0.952497 -0.359832,-1.291163 -1.333495,-1.291163 -0.846664,0 -1.428746,0.1905 -1.576912,0.306916 -0.09525,0.07408 -0.14817,0.243416 -0.14817,0.370416 z m 1.873244,2.381242 c 0,0.444499 0,1.132413 -0.02117,1.365246 -0.0635,0.07408 -0.190499,0.105833 -0.285749,0.105833 -0.264582,0 -0.338665,-0.201083 -0.338665,-0.709081 0,-0.677332 0.137582,-0.846664 0.370415,-0.846664 0.08467,0 0.201083,0.02117 0.275166,0.08467 z" />
      <path
         inkscape:connector-curvature="0"
         id="path24"
         style="font-style:normal;font-variant:normal;font-weight:bold;font-stretch:normal;font-family:'Yanone Kaffeesatz';-inkscape-font-specification:'Yanone Kaffeesatz Bold';fill:#ffffff;stroke-width:0.264583"
         d="m 68.848413,57.083847 v 4.921234 c 1.206497,0 1.206497,0 1.206497,-0.211666 l 0.01058,-3.884071 c 0.137583,-0.116416 0.328082,-0.169333 0.455082,-0.169333 0.105833,0 0.243416,0.01058 0.391582,0.08467 0.09525,-0.264583 0.116416,-0.550332 0.116416,-0.687915 0,-0.359832 -0.137583,-0.529165 -0.709081,-0.529165 -0.592665,0 -1.100663,0.22225 -1.471079,0.476249 z" />
      <path
         inkscape:connector-curvature="0"
         id="path26"
         style="font-style:normal;font-variant:normal;font-weight:bold;font-stretch:normal;font-family:'Yanone Kaffeesatz';-inkscape-font-specification:'Yanone Kaffeesatz Bold';fill:#ffffff;stroke-width:0.264583"
         d="m 71.473568,54.744938 v 7.260143 c 1.206496,0 1.195913,0 1.195913,-0.211666 v -1.979077 c 0,0 0.116416,-0.116416 0.285749,-0.148166 0.412749,-0.07408 0.529165,0.455082 0.529165,1.269996 0,0.338666 -0.02117,0.709081 -0.05292,1.068913 1.322913,0 1.333496,0 1.354663,-0.179916 0.02117,-0.243416 0.03175,-0.486832 0.03175,-0.719664 -0.01058,-0.846664 -0.211666,-1.598079 -0.761998,-2.000244 0.243416,-0.253999 0.613831,-0.804331 0.613831,-1.598078 0,-0.412749 -0.158749,-0.899581 -0.878413,-0.899581 -0.444499,0 -0.836081,0.137583 -1.12183,0.296333 v -2.677575 c -0.973664,0 -1.195913,0 -1.195913,0.518582 z m 1.862661,3.206739 c 0,0.518582 -0.232833,0.825498 -0.666748,1.068914 v -1.05833 c 0.126999,-0.179916 0.275166,-0.296333 0.455082,-0.296333 0.148166,0 0.211666,0.105833 0.211666,0.285749 z" />
    </g>
  </g>
</svg>
